<?xml version="1.0" encoding="UTF-8"?>
<svg width="60px" height="60px" viewBox="0 0 60 60" version="1.1" xmlns="http://www.w3.org/2000/svg" xmlns:xlink="http://www.w3.org/1999/xlink">
    <!-- Generator: Sketch 63.1 (92452) - https://sketch.com -->
    <title>free</title>
    <desc>Created with Sketch.</desc>
    <g id="Page-1" stroke="none" stroke-width="1" fill="none" fill-rule="evenodd">
        <g id="35" transform="translate(-258.000000, -226.000000)" fill-rule="nonzero">
            <g id="Group-2" transform="translate(226.000000, 198.000000)">
                <g id="free" transform="translate(32.000000, 28.000000)">
                    <path d="M57.1347368,29.945614 L59.7621053,23.0927485 C60.0502924,22.3367251 59.825731,21.4796491 59.1932164,20.9669006 L53.4968421,16.3484211 L52.3440936,9.09883041 C52.2168421,8.29789474 51.5880702,7.6728655 50.7871345,7.54561404 L43.5375439,6.3928655 L38.922807,0.692748538 C38.4138012,0.0602339181 37.5380117,-0.164327485 36.8007018,0.123859649 L29.9440936,2.75497076 L23.0912281,0.127602339 C22.331462,-0.164327485 21.4818713,0.0677192982 20.9691228,0.696491228 L16.3506433,6.39660819 L9.10105263,7.54935673 C8.30385965,7.67660819 7.67508772,8.30538012 7.54783626,9.1025731 L6.39508772,16.3521637 L0.69497076,20.9706433 C0.0661988304,21.4796491 -0.162105263,22.3367251 0.126081871,23.0927485 L2.75345029,29.945614 L0.126081871,36.7984795 C-0.165847953,37.5545029 0.0661988304,38.4115789 0.69497076,38.9205848 L6.39508772,43.5353216 L7.54783626,50.7849123 C7.67508772,51.585848 8.30011696,52.2146199 9.10105263,52.3418713 L16.3506433,53.4946199 L20.9691228,59.1909942 C21.4818713,59.8272515 22.3389474,60.0518129 23.0949708,59.759883 L29.9440936,57.1362573 L36.7969591,59.7636257 C37.0140351,59.8459649 37.2385965,59.8871345 37.4669006,59.8871345 C38.017076,59.8871345 38.5597661,59.6438596 38.922807,59.1909942 L43.5375439,53.4946199 L50.7871345,52.3418713 C51.5880702,52.2146199 52.2168421,51.585848 52.3440936,50.7849123 L53.4968421,43.5353216 L59.1932164,38.9205848 C59.825731,38.4078363 60.0502924,37.5545029 59.7621053,36.7984795 L57.1347368,29.945614 Z" fill="#2A42E1"></path>
                    <g id="Group" transform="translate(12.000000, 22.000000)" fill="#FAFAFA">
                        <path d="M4.49328628,2.99742672 C5.3196722,2.99742672 5.99036222,2.3267367 5.99036222,1.50035079 C5.99036222,0.673964872 5.3196722,0.00327485361 4.49328628,0.00327485361 L1.49913441,0.00327485361 C0.672748498,0.00327485361 0.00205847941,0.673964872 0.00205847941,1.50035079 L0.00205847941,13.4769583 C0.00205847941,14.3033442 0.672748498,14.9740342 1.49913441,14.9740342 C2.32552033,14.9740342 2.99621035,14.3033442 2.99621035,13.4769583 L2.99621035,8.98573046 L4.49328628,8.98573046 C5.3196722,8.98573046 5.99036222,8.31504044 5.99036222,7.48865452 C5.99036222,6.66226861 5.3196722,5.99157859 4.49328628,5.99157859 L2.99621035,5.99157859 L2.99621035,2.99742672 L4.49328628,2.99742672 Z" id="Path"></path>
                        <path d="M25.4523494,2.99742672 C26.2787353,2.99742672 26.9494253,2.3267367 26.9494253,1.50035079 C26.9494253,0.673964872 26.2787353,0.00327485361 25.4523494,0.00327485361 L22.4581975,0.00327485361 C21.6318116,0.00327485361 20.9611216,0.673964872 20.9611216,1.50035079 L20.9611216,13.4769583 C20.9611216,14.3033442 21.6318116,14.9740342 22.4581975,14.9740342 L25.4523494,14.9740342 C26.2787353,14.9740342 26.9494253,14.3033442 26.9494253,13.4769583 C26.9494253,12.6505723 26.2787353,11.9798823 25.4523494,11.9798823 L23.9552734,11.9798823 L23.9552734,8.98573046 L25.4523494,8.98573046 C26.2787353,8.98573046 26.9494253,8.31504044 26.9494253,7.48865452 C26.9494253,6.66226861 26.2787353,5.99157859 25.4523494,5.99157859 L23.9552734,5.99157859 L23.9552734,2.99742672 L25.4523494,2.99742672 Z" id="Path"></path>
                        <path d="M34.434805,8.98573046 C35.2611909,8.98573046 35.9318809,8.31504044 35.9318809,7.48865452 C35.9318809,6.66226861 35.2611909,5.99157859 34.434805,5.99157859 L32.937729,5.99157859 L32.937729,2.99742672 L34.434805,2.99742672 C35.2611909,2.99742672 35.9318809,2.3267367 35.9318809,1.50035079 C35.9318809,0.673964872 35.2611909,0.00327485361 34.434805,0.00327485361 L31.4406531,0.00327485361 C30.6142672,0.00327485361 29.9435772,0.673964872 29.9435772,1.50035079 L29.9435772,13.4769583 C29.9435772,14.3033442 30.6142672,14.9740342 31.4406531,14.9740342 L34.434805,14.9740342 C35.2611909,14.9740342 35.9318809,14.3033442 35.9318809,13.4769583 C35.9318809,12.6505723 35.2611909,11.9798823 34.434805,11.9798823 L32.937729,11.9798823 L32.937729,8.98573046 L34.434805,8.98573046 Z" id="Path"></path>
                        <path d="M17.9669697,4.49450266 C17.9669697,2.01833906 15.9519055,0.00327485361 13.4757419,0.00327485361 L10.48159,0.00327485361 C9.6552041,0.00327485361 8.98451408,0.673964872 8.98451408,1.50035079 L8.98451408,13.4769583 C8.98451408,14.3033442 9.6552041,14.9740342 10.48159,14.9740342 C11.3079759,14.9740342 11.978666,14.3033442 11.978666,13.4769583 L11.978666,9.98278303 L15.272233,14.3752038 C15.5656599,14.7674377 16.0147827,14.9740342 16.4698938,14.9740342 C16.7812855,14.9740342 17.0956715,14.8782213 17.3651452,14.674619 C18.0268527,14.1775898 18.1615896,13.2404203 17.6645604,12.5787127 L14.8051453,8.76116907 C16.6285838,8.19228021 17.9669697,6.50657271 17.9669697,4.49450266 Z M13.4757419,5.99157859 L11.978666,5.99157859 L11.978666,2.99742672 L13.4757419,2.99742672 C14.3021278,2.99742672 14.9728178,3.66811674 14.9728178,4.49450266 C14.9728178,5.32088857 14.3021278,5.99157859 13.4757419,5.99157859 Z" id="Shape"></path>
                    </g>
                </g>
            </g>
        </g>
    </g>
</svg>