<?xml version="1.0" encoding="UTF-8"?>
<svg width="80px" height="73px" viewBox="0 0 80 73" version="1.1" xmlns="http://www.w3.org/2000/svg" xmlns:xlink="http://www.w3.org/1999/xlink">
    <!-- Generator: Sketch 63.1 (92452) - https://sketch.com -->
    <title>006-indian</title>
    <desc>Created with Sketch.</desc>
    <g id="Page-1" stroke="none" stroke-width="1" fill="none" fill-rule="evenodd">
        <g id="Group-Copy" transform="translate(-282.000000, -371.000000)" fill-rule="nonzero">
            <g id="Group-10" transform="translate(112.000000, 200.000000)">
                <g id="Group-9">
                    <g id="006-indian" transform="translate(170.399990, 171.199990)">
                        <path d="M76.2411952,51.9215562 C73.221266,48.8246733 68.6207928,46.0763088 63.2885694,44.182421 C60.5185854,43.1857115 57.6488553,42.4917501 54.7295175,42.1126612 L54.7295175,48.3623374 C56.6911742,49.4263698 58.7338608,50.3336941 60.8384961,51.0758347 C66.1710267,52.9683401 71.4742197,53.73634 75.7727153,53.2380616 C76.0673831,53.2037396 76.3169702,53.0050113 76.4164275,52.7255201 C76.5158848,52.4460288 76.4479418,52.1343071 76.2411952,51.9215562 L76.2411952,51.9215562 Z" id="Path_293" fill="#E2D779"></path>
                        <path d="M69.7959863,50.3752651 C69.4475162,51.3580003 68.8719259,52.2445684 68.1160633,52.9628105 C70.8567478,53.4047176 73.4602675,53.5062472 75.7719473,53.2382152 C76.0666124,53.2038257 76.3161719,53.0050658 76.4156206,52.725566 C76.5150693,52.4460662 76.4471448,52.1343425 76.2404272,51.9215562 C74.6159538,50.2562252 72.5317556,48.6930381 70.1256119,47.3080271 C70.2592,48.3421274 70.1462488,49.3931625 69.7959863,50.3752651 L69.7959863,50.3752651 Z" id="Path_294" fill="#E02424"></path>
                        <path d="M24.2350055,41.7689044 C21.1756046,42.1326118 18.1677347,42.8444474 15.2698352,43.890581 C9.93991576,45.7860048 5.34036424,48.5363661 2.32135656,51.6353994 C2.11449225,51.8479868 2.04639184,52.1596471 2.14573183,52.4391427 C2.24507182,52.7186383 2.49459221,52.9174079 2.78922211,52.9517513 C7.08848566,53.44834 12.3918323,52.6781897 17.7232878,50.7832267 C19.9732121,49.9896505 22.1515809,49.006191 24.2350055,47.8434766 L24.2350055,41.7689044 L24.2350055,41.7689044 Z" id="Path_295" fill="#E2D779"></path>
                        <path d="M8.76472229,50.0866508 C8.41454129,49.1046969 8.30087275,48.0539996 8.43294632,47.0198735 C6.02833857,48.4059598 3.94552279,49.9689932 2.32166376,51.6360138 C2.11479945,51.8486012 2.04669904,52.1602615 2.14603903,52.4397571 C2.24537902,52.7192527 2.49489941,52.9180223 2.78952931,52.9523657 C5.10136267,53.2196296 7.7047288,53.1168713 10.4460277,52.6729673 C9.68981142,51.9552347 9.11374805,51.0690886 8.76472229,50.0866508 L8.76472229,50.0866508 Z" id="Path_296" fill="#E02424"></path>
                        <path d="M77.9521455,31.5282399 C77.8916036,31.2376885 77.671233,31.0067759 77.3838255,30.9327328 C73.1930036,29.8549217 67.8339001,29.8950113 62.2935487,31.045936 C59.0783065,31.6942311 55.9550778,32.7357888 52.9942985,34.1471196 C53.8035471,35.6903956 54.3403238,37.361782 54.5809863,39.0876631 C57.6722382,39.1467157 60.7600766,38.8513622 63.7840829,38.2073816 C69.3235128,37.0563033 74.2545331,34.9582812 77.6681391,32.3000798 C77.9020218,32.1178439 78.0121291,31.818607 77.9521455,31.5282399 Z" id="Path_297" fill="#E2D779"></path>
                        <path d="M71.0733238,32.9573342 C71.2865519,33.9778185 71.2557114,35.0342394 70.9833142,36.0405466 C73.5547315,34.9951451 75.8323121,33.7300957 77.6679855,32.3005406 C77.9019444,32.118072 78.0118905,31.8185128 77.9515216,31.5280181 C77.8911527,31.2375234 77.670959,31.006572 77.3836719,30.9324256 C75.130053,30.3528928 72.5365172,30.0994529 69.7608119,30.1653473 C70.4121286,30.9796331 70.8618476,31.9362795 71.0733238,32.9573342 L71.0733238,32.9573342 Z" id="Path_298" fill="#E02424"></path>
                        <path d="M26.0507109,33.9956701 C23.2484328,32.5933022 19.9655403,31.4743263 16.4321263,30.7416544 C10.8925429,29.5934945 5.53343942,29.5554017 1.34261746,30.6359776 C1.05542004,30.7101453 0.835313144,30.9410538 0.774979114,31.2314724 C0.714645085,31.5218911 0.824566388,31.8213625 1.05845749,32.0037855 C4.47359953,34.6610652 9.40538782,36.7558618 14.9455856,37.905404 C18.0621602,38.5685633 21.2464851,38.8591114 24.4316135,38.77094 C24.7006354,37.0998808 25.2479206,35.4857504 26.0507109,33.9956701 L26.0507109,33.9956701 Z" id="Path_299" fill="#E2D779"></path>
                        <path d="M7.6526584,32.657507 C7.86406291,31.6365606 8.31314722,30.6798227 8.96348067,29.8649057 C6.18854335,29.8005473 3.59592922,30.0547553 1.34200306,30.635824 C1.05480564,30.7099917 0.834698744,30.9409002 0.774364715,31.2313188 C0.714030685,31.5217375 0.823951988,31.8212089 1.05784309,32.0036319 C2.8939773,33.4321117 5.17278666,34.6967004 7.74497199,35.7405659 C7.47188269,34.7344827 7.44025307,33.678127 7.6526584,32.657507 L7.6526584,32.657507 Z" id="Path_300" fill="#E02424"></path>
                        <path d="M68.2446265,12.6196211 C68.0419995,12.402696 67.733756,12.3196799 67.449593,12.4055027 C63.308691,13.6604146 58.7503043,16.4774383 54.6150855,20.3374059 C51.8579658,22.9111272 49.5521228,25.7038821 47.8657486,28.478205 C49.194501,29.3548422 50.3786117,30.4330825 51.3755082,31.6741599 C54.14722,30.1945313 56.9657797,28.1530339 59.6113858,25.6837605 C63.746451,21.8237929 66.8688314,17.470923 68.4039097,13.4264818 C68.5086314,13.1491268 68.4468905,12.8363737 68.2446265,12.6196211 Z" id="Path_301" fill="#E2D779"></path>
                        <path d="M63.109779,17.4119406 C63.8224255,18.1730484 64.3451914,19.0917438 64.6354877,20.0931819 C66.2899131,17.8647533 67.577849,15.6011504 68.4032953,13.4269426 C68.5081911,13.1493468 68.446305,12.8362673 68.2436808,12.6194586 C68.0410565,12.40265 67.7328732,12.3197541 67.448825,12.4056563 C65.2216252,13.0805746 62.8743102,14.2106097 60.5368257,15.708056 C61.5165541,16.0657426 62.3980805,16.6495151 63.109779,17.4119406 L63.109779,17.4119406 Z" id="Path_302" fill="#E02424"></path>
                        <path d="M31.1376352,28.4537826 C29.4398945,25.6121829 27.0868964,22.7463144 24.2600423,20.1097707 C20.1234411,16.2522607 15.5642864,13.4369266 11.4218484,12.1840115 C11.1379831,12.0983068 10.8300783,12.181246 10.6276683,12.3979369 C10.4252582,12.6146278 10.3634708,12.9274642 10.4682997,13.204837 C12.0052211,17.2480494 15.129752,21.5992297 19.2657388,25.4585829 C21.9723241,27.9826915 24.8600038,30.0599777 27.6931555,31.5459039 C28.6783363,30.3469363 29.8397098,29.3043673 31.1376352,28.4537826 L31.1376352,28.4537826 Z" id="Path_303" fill="#E2D779"></path>
                        <path d="M15.7630448,17.1881454 C16.4745528,16.4256716 17.355704,15.8415702 18.3350765,15.4831856 C15.9974383,13.9871217 13.650277,12.8583155 11.422002,12.1844723 C11.1381367,12.0987676 10.8302319,12.1817068 10.6278219,12.3983977 C10.4254118,12.6150886 10.3636244,12.927925 10.4684533,13.2052978 C11.2943604,15.379352 12.5841395,17.642955 14.2393329,19.8706155 C14.5291118,18.8690302 15.0511639,17.949966 15.7630448,17.1881454 L15.7630448,17.1881454 Z" id="Path_304" fill="#E02424"></path>
                        <path d="M45.2708305,27.1060964 C47.0195663,24.2898407 48.4887501,20.876849 49.5341516,17.1485166 C51.0604747,11.7033972 51.4653642,6.36287934 50.6746315,2.11107818 C50.6200328,1.81940448 50.4045382,1.58404286 50.1187975,1.50400025 C49.8330568,1.42395764 49.5266544,1.51312381 49.3284813,1.73399022 C46.4427984,4.95636428 44.0123858,9.72994459 42.4859092,15.175064 C41.4260693,18.9568492 40.9079765,22.6874856 40.9545173,26.0385765 C42.4379241,26.1804095 43.892325,26.540115 45.2708305,27.1060964 L45.2708305,27.1060964 Z" id="Path_305" fill="#E2D779"></path>
                        <path d="M48.2236366,8.26460074 C49.2282984,8.5446457 50.1525798,9.05810029 50.9211595,9.76312218 C51.1761355,7.00016567 51.0999499,4.39726034 50.6753995,2.11061738 C50.6208008,1.81894368 50.4053062,1.58358206 50.1195655,1.50353945 C49.8338248,1.42349684 49.5274224,1.51266301 49.3292493,1.73352942 C47.7778894,3.46644444 46.3590864,5.65032901 45.1402705,8.14402475 C46.163251,7.94132055 47.2196095,7.98262978 48.2236366,8.26460074 L48.2236366,8.26460074 Z" id="Path_306" fill="#E02424"></path>
                        <path d="M33.7374685,27.0882788 C35.1031214,26.5324702 36.5425648,26.1788964 38.0103128,26.0387301 C38.065916,22.6652136 37.5476697,18.9041644 36.476617,15.0896624 C34.9473756,9.64561819 32.5155806,4.87295949 29.6271329,1.65150703 C29.4289747,1.43086485 29.1227309,1.34186464 28.8371808,1.42193211 C28.5516308,1.50199957 28.336305,1.73724651 28.2817506,2.02874859 C27.4925539,6.28162494 27.9002083,11.6218356 29.4282209,17.066187 C30.4836064,20.8237034 31.9696863,24.2605031 33.7374685,27.0882788 Z" id="Path_307" fill="#E2D779"></path>
                        <path d="M30.7355104,8.18165675 C31.7398194,7.89933035 32.7965268,7.85765353 33.8199517,8.06000556 C32.5994462,5.56738502 31.1809503,3.38457565 29.6275937,1.65166063 C29.4294355,1.43101845 29.1231917,1.34201824 28.8376416,1.42208571 C28.5520916,1.50215317 28.3367658,1.73740011 28.2822114,2.02890219 C27.8575075,4.31523795 27.7825507,6.91921848 28.0387555,9.68186779 C28.8072834,8.97681359 29.7311849,8.46284508 30.7355104,8.18165675 L30.7355104,8.18165675 Z" id="Path_308" fill="#E02424"></path>
                        <path d="M30.4743904,28.9145826 C31.6856108,28.025524 33.0219071,27.3208834 34.4397276,26.823626 C33.5795677,23.5799015 32.0709087,20.1222123 30.0240353,16.7611375 C27.0819812,11.931186 23.4521064,7.99057837 19.8011883,5.66830021 C19.5508971,5.50931118 19.2320522,5.50619081 18.9786973,5.66025091 C18.7253424,5.81431102 18.5814098,6.0988373 18.6074093,6.39421373 C18.99571,10.7020789 20.8298474,15.7343216 23.7709799,20.5653483 C25.7588709,23.8295015 28.0628707,26.6873828 30.4743904,28.9145826 Z" id="Path_309" fill="#FFFBCA"></path>
                        <path d="M22.629732,11.6565492 C23.520735,11.1140324 24.5270106,10.7890437 25.5670245,10.7079157 C23.7193703,8.6372343 21.7638889,6.91722168 19.8004203,5.66768581 C19.5501291,5.50869678 19.2312842,5.50557641 18.9779293,5.65963651 C18.7245744,5.81369662 18.5806418,6.0982229 18.6066413,6.39359933 C18.8149228,8.70988709 19.4459116,11.2372212 20.4383211,13.8278386 C20.9879639,12.9418829 21.7387441,12.1979964 22.629732,11.6565492 L22.629732,11.6565492 Z" id="Path_310" fill="#0853A4"></path>
                        <path d="M59.9456193,5.81698499 C59.6919712,5.66284755 59.3728147,5.66606293 59.1223234,5.82527939 C55.4735558,8.15016875 51.8447562,12.0921587 48.9048525,16.9234926 C46.8936143,20.2292715 45.4018513,23.6292071 44.5358546,26.8265444 C45.9815217,27.3345066 47.3421152,28.0580437 48.5715405,28.9726434 C50.9411275,26.759882 53.2025801,23.9396327 55.1591366,20.7243242 C58.0988867,15.8925295 59.9305665,10.8592117 60.3171777,6.55165372 C60.3435127,6.25595512 60.1994036,5.97101342 59.9456193,5.81698499 Z" id="Path_311" fill="#FFFBCA"></path>
                        <path d="M56.2956229,11.815986 C57.187239,12.3567063 57.9385594,13.100343 58.4884163,13.9863537 C59.4799042,11.3945076 60.1092033,8.86763428 60.3162561,6.55119292 C60.3422744,6.25560401 60.1981835,5.97088571 59.9445936,5.81680163 C59.6910036,5.66271755 59.3719176,5.66600432 59.1215554,5.82527939 C57.1593156,7.07558326 55.2039878,8.79667108 53.3574088,10.8688885 C54.3977239,10.9488358 55.4044523,11.2733424 56.2956229,11.815986 Z" id="Path_312" fill="#0853A4"></path>
                        <path d="M74.3979954,21.4070762 C74.2613042,21.143657 73.9869192,20.9806813 73.6902067,20.986673 C69.3639096,21.078833 64.2143165,22.562148 59.1903682,25.1645926 C55.9613894,26.8371428 53.0810825,28.8190434 50.7520459,30.9454816 C51.8739113,32.1750905 52.7870879,33.5799297 53.4554056,35.1043547 C56.618974,34.3306093 59.6762976,33.1736936 62.5595839,31.6592607 C67.5830714,29.057277 71.7648309,25.7075685 74.3345586,22.2282217 C74.5106957,21.9890486 74.5353076,21.6704645 74.3979954,21.4070762 L74.3979954,21.4070762 Z" id="Path_313" fill="#FFFBCA"></path>
                        <path d="M68.1606073,24.6378982 C68.6413314,25.5629596 68.8967896,26.5884764 68.9061816,27.6309475 C71.1003574,25.9309029 72.951698,24.0989159 74.3334834,22.2271465 C74.5094629,21.9882671 74.5344118,21.6701443 74.3978233,21.4067516 C74.2612348,21.1433589 73.9868439,20.980466 73.6902067,20.986673 C71.3636278,21.0361322 68.7980472,21.491249 66.1432251,22.3031785 C66.990033,22.9118312 67.6812309,23.7117557 68.1606073,24.6378982 L68.1606073,24.6378982 Z" id="Path_314" fill="#0853A4"></path>
                        <path d="M78.2555054,41.5056341 C74.511045,39.3378775 69.3397944,37.9313624 63.694227,37.5458265 C60.5832646,37.3177858 57.4563545,37.4510783 54.3760839,37.943036 C54.6110642,39.0177331 54.7295084,40.1146296 54.7293639,41.2147157 L54.7293639,43.3970643 C57.4931392,44.1746512 60.3309614,44.65972 63.1961022,44.8442833 C68.840748,45.2295121 74.1554611,44.538773 78.1599662,42.8995539 C78.4344168,42.7869546 78.6210801,42.5282339 78.6413952,42.2322794 C78.6617103,41.936325 78.5121497,41.654525 78.255659,41.5054805 L78.2555054,41.5056341 Z" id="Path_315" fill="#FFFBCA"></path>
                        <path d="M65.374918,40.1203158 L56.2627525,39.4976215 C56.3129285,40.0217046 56.3385285,40.5523926 56.3395525,41.0896853 L56.3395525,41.915746 L65.2111804,42.5212372 C65.2391356,42.523234 65.2669372,42.5241556 65.2944316,42.5241556 C65.9423522,42.5225005 66.4727272,42.0083013 66.4944435,41.3607427 C66.5161598,40.713184 66.0214256,40.1646071 65.3750716,40.1195478 L65.374918,40.1203158 Z" id="Path_316" fill="#E2D779"></path>
                        <path d="M71.6328885,41.7541588 C71.5626585,42.7944187 71.2476725,43.8033737 70.7135926,44.6988241 C73.4719411,44.3853266 76.0064945,43.7812178 78.1599662,42.8998611 C78.4344938,42.7873186 78.6212186,42.5285578 78.6415046,42.2325516 C78.6617906,41.9365454 78.5121128,41.6547302 78.2555054,41.5057877 C76.2418096,40.3399638 73.8127795,39.3967063 71.1223222,38.711804 C71.5297771,39.6715485 71.7047175,40.7139812 71.6328885,41.7541588 Z" id="Path_317" fill="#0853A4"></path>
                        <path d="M71.4894261,61.4081984 C69.4169016,57.6118212 65.7294267,53.7251272 61.1060672,50.4641995 C59.0943383,49.0378966 56.9604658,47.7922168 54.7293639,46.7417039 L54.7293639,54.1913031 C54.7293639,54.3986631 54.7241415,54.6046407 54.7158471,54.8098503 C55.4130886,55.3680326 56.1365445,55.911879 56.8862149,56.4413893 C61.5095744,59.7017026 66.4094139,61.8708415 70.6828726,62.5497535 C70.975909,62.595991 71.2697842,62.4718549 71.4409332,62.2295406 C71.6120821,61.9872263 71.6308217,61.6687593 71.4892725,61.4080448 L71.4894261,61.4081984 Z" id="Path_318" fill="#FFFBCA"></path>
                        <g id="Group_45" transform="translate(49.920148, 20.405143)" fill="#C6BA66">
                            <path d="M16.1104879,13.5998962 C15.9750279,12.9492363 15.3379992,12.5313796 14.6872305,12.6663155 L5.27293385,14.6227185 C5.56891926,15.3738573 5.80913486,16.1457918 5.99162818,16.9322478 L15.1769072,15.023768 C15.4895496,14.9587965 15.7635667,14.7722655 15.9386553,14.5052251 C16.1137439,14.2381847 16.1755558,13.9125186 16.1104879,13.5998962 Z" id="Path_319"></path>
                            <path d="M9.42566302,0.520396746 C9.2078056,0.287003681 8.90615291,0.149717781 8.58707028,0.138742744 C8.26798765,0.127767708 7.95761496,0.24400263 7.72423599,0.461875152 L0.0473087951,7.6279288 C0.68212588,8.12506951 1.28011773,8.66751778 1.83659501,9.25101984 L9.36714142,2.22182377 C9.85290843,1.7680436 9.87910281,1.0064815 9.42566302,0.520396746 Z" id="Path_320"></path>
                        </g>
                        <g id="Group_46" transform="translate(52.992148, 26.241943)" fill="#E2D779">
                            <path d="M10.5953269,0.76415992 C10.4485094,0.480670274 10.1950784,0.267123586 9.89079727,0.170507184 C9.5865161,0.0738907812 9.25631541,0.102120753 8.97285026,0.248985574 L0.0158207983,4.88770509 C0.501870538,5.53214306 0.940280987,6.21116589 1.32756466,6.91937208 L10.0799989,2.38617575 C10.670059,2.08044494 10.9007334,1.35438789 10.5953269,0.76415992 Z" id="Path_321"></path>
                            <path d="M8.21099434,27.2947172 L5.05221067,25.0675174 C5.19189454,26.097812 5.26858103,27.13567 5.28184265,28.1753059 L6.82352569,29.2624865 C7.36678296,29.6456254 8.11777542,29.5158238 8.50091431,28.9725666 C8.8840532,28.4293093 8.75425161,27.6783168 8.21099434,27.295178 L8.21099434,27.2947172 Z" id="Path_322"></path>
                        </g>
                        <path d="M65.7016251,58.1818307 C65.1007544,59.0341302 64.307264,59.7326312 63.3856446,60.2205633 C65.9046843,61.3850048 68.3844025,62.1846463 70.6831798,62.5500607 C70.9762521,62.596285 71.270155,62.472131 71.4413297,62.2297939 C71.6125043,61.9874567 71.6312684,61.6689586 71.4897333,61.4081984 C70.3752119,59.3668546 68.7903672,57.2995524 66.8473274,55.3173446 C66.6961415,56.3490224 66.3036004,57.3304542 65.7016251,58.1818307 L65.7016251,58.1818307 Z" id="Path_323" fill="#0853A4"></path>
                        <path d="M24.2351591,46.264776 C21.8285232,47.3590099 19.5321961,48.6808665 17.3773806,50.2122956 C12.7558643,53.4747592 9.07023265,57.3628356 6.99985847,61.1609024 C6.85819267,61.4215356 6.87683776,61.7400053 7.04794947,61.9823266 C7.21906118,62.2246479 7.51294173,62.348764 7.80595119,62.3024575 C12.0798707,61.6217024 16.9784814,59.4501058 21.6007657,56.1877957 C22.5178601,55.5405254 23.3959912,54.8703687 24.2351591,54.1773255 L24.2351591,46.2653904 L24.2351591,46.2653904 L24.2351591,46.264776 Z" id="Path_324" fill="#FFFBCA"></path>
                        <path d="M12.7858163,57.9314628 C12.1835194,57.0804651 11.7905106,56.099364 11.6387316,55.0678983 C9.69722779,57.0510276 8.11376555,59.117869 7.00001207,61.1604416 C6.85834627,61.4210748 6.87699136,61.7395445 7.04810307,61.9818658 C7.21921478,62.2241871 7.51309533,62.3483032 7.80610479,62.3019967 C10.1042677,61.9362751 12.5839859,61.1346368 15.1031792,59.9688129 C14.1810727,59.4816491 13.3870648,58.7835831 12.7858163,57.9314628 L12.7858163,57.9314628 Z" id="Path_325" fill="#0853A4"></path>
                        <path d="M24.2350055,41.2151765 C24.2345006,40.0299409 24.3717673,38.8486637 24.6440422,37.6951257 C21.4419604,37.1497846 18.1854419,36.995874 14.9462,37.2367833 C9.30186143,37.6247769 4.13107157,39.0339031 0.38753276,41.2035029 C0.131076634,41.3524311 -0.0184803685,41.6341392 0.00183757154,41.930005 C0.0221555116,42.2258707 0.20881831,42.4844897 0.48322555,42.596962 C4.48895953,44.2344914 9.80336538,44.9226193 15.4487792,44.5353938 C18.4250708,44.3442743 21.371372,43.8268688 24.2346983,42.9924819 L24.2350055,41.2151765 Z" id="Path_326" fill="#FFFBCA"></path>
                        <path d="M7.01030327,41.4483413 C6.93820193,40.4083684 7.11233422,39.366048 7.51856562,38.4059864 C4.8288763,39.0922711 2.40107495,40.0359894 0.38753276,41.2033493 C0.131076634,41.3522775 -0.0184803685,41.6339856 0.00183757154,41.9298514 C0.0221555116,42.2257171 0.20881831,42.4843361 0.48322555,42.5968084 C2.63700452,43.4773971 5.17263306,44.0807378 7.93113517,44.3922386 C7.39664204,43.4971476 7.08113216,42.4884634 7.01030327,41.4483413 Z" id="Path_327" fill="#0853A4"></path>
                        <path d="M28.2806755,30.8722144 C25.9124709,28.6688226 22.9498344,26.6135012 19.6148716,24.8878054 C14.5904625,22.2885865 9.44056222,20.806961 5.11334347,20.7175658 C4.81692617,20.7116884 4.54288467,20.8746308 4.40647659,21.1378618 C4.27006852,21.4010929 4.29495964,21.7189441 4.47068113,21.9577321 C7.04209847,25.4367717 11.225394,28.7843298 16.2499567,31.3847775 C19.3976812,33.0129374 22.5945576,34.2024156 25.6074213,34.8868572 C26.2802319,33.4154928 27.1825669,32.0603831 28.2806755,30.8722144 L28.2806755,30.8722144 Z" id="Path_328" fill="#FFFBCA"></path>
                        <path d="M10.6446325,24.3658727 C11.1238876,23.4397602 11.814663,22.6396352 12.6609395,22.0303849 C10.0059638,21.2199914 7.44099762,20.7659498 5.11365067,20.717873 C4.8170401,20.7115757 4.54261793,20.8743573 4.40593705,21.1376743 C4.26925618,21.4009913 4.29406346,21.719095 4.46991313,21.9580393 C5.85231299,23.8287335 7.705036,25.6608741 9.90013337,27.3593827 C9.90921308,26.3168547 10.1642985,25.2911977 10.6446325,24.3658727 L10.6446325,24.3658727 Z" id="Path_329" fill="#0853A4"></path>
                        <path d="M39.6917719,35.3935757 C30.5067115,35.3849266 23.0536622,42.8237408 23.0447592,52.008801 L23.0447592,55.221959 C23.0726266,64.3962361 30.5176828,71.8187119 39.6920023,71.8187119 C48.8663217,71.8187119 56.3113779,64.3962361 56.3392453,55.221959 L56.3392453,52.008801 C56.33497,47.5978933 54.5786424,43.3693435 51.4566351,40.2533853 C48.3346278,37.1374271 44.1026796,35.389304 39.6917719,35.3935757 Z" id="Path_330" fill="#D69363"></path>
                        <path d="M28.2130915,55.221959 L28.2130915,52.008801 C28.2198877,43.8208902 34.1862095,36.8564886 42.2762452,35.5932635 C41.4210787,35.4602558 40.5570684,35.393576 39.6917719,35.393576 C30.5067115,35.3849266 23.0536622,42.8237408 23.0447592,52.008801 L23.0447592,55.221959 C23.0536622,64.4071393 30.5068988,71.8460032 39.6920791,71.8371844 C40.5573246,71.8371844 41.4212839,71.7705042 42.2762452,71.6374965 C34.1863692,70.3742189 28.2200289,63.4098718 28.2130915,55.221959 L28.2130915,55.221959 Z" id="Path_331" fill="#000000" opacity="0.1"></path>
                        <g id="Group_47" transform="translate(31.948950, 48.360341)" fill="#5B330A">
                            <path d="M7.74282159,8.96378787 C7.0780016,8.96378787 6.53905852,8.42484478 6.53905852,7.76002479 L6.53905852,1.30252786 C6.53905852,0.637707876 7.0780016,0.0987647897 7.74282159,0.0987647897 C8.40764158,0.0987647897 8.94658467,0.637707876 8.94658467,1.30252786 L8.94658467,7.76002479 C8.94658467,8.42484478 8.40764158,8.96378787 7.74282159,8.96378787 Z" id="Path_332"></path>
                            <path d="M1.33631986,4.70691791 C0.671499872,4.70691791 0.132556786,4.16797482 0.132556786,3.50315483 L0.132556786,1.30252786 C0.132556786,0.637707876 0.671499872,0.0987647897 1.33631986,0.0987647897 C2.00113985,0.0987647897 2.54008294,0.637707876 2.54008294,1.30252786 L2.54008294,3.50315483 C2.54008294,4.16797482 2.00113985,4.70691791 1.33631986,4.70691791 L1.33631986,4.70691791 Z" id="Path_333"></path>
                            <path d="M14.1502449,4.70691791 C13.4854249,4.70691791 12.9464818,4.16797482 12.9464818,3.50315483 L12.9464818,1.30252786 C12.9464818,0.637707876 13.4854249,0.0987647897 14.1502449,0.0987647897 C14.8150649,0.0987647897 15.354008,0.637707876 15.354008,1.30252786 L15.354008,3.50315483 C15.354008,4.16797482 14.8150649,4.70691791 14.1502449,4.70691791 L14.1502449,4.70691791 Z" id="Path_334"></path>
                            <path d="M11.4805236,15.1079408 L4.00527318,15.1079408 C3.34045319,15.1079408 2.80151011,14.5689977 2.80151011,13.9041777 C2.80151011,13.2393578 3.34045319,12.7004147 4.00527318,12.7004147 L11.4805236,12.7004147 C12.1453436,12.7004147 12.6842867,13.2393578 12.6842867,13.9041777 C12.6842867,14.5689977 12.1453436,15.1079408 11.4805236,15.1079408 Z" id="Path_335"></path>
                        </g>
                        <g id="Group_48" transform="translate(23.040151, 55.272340)" fill="#FFF7EE">
                            <path d="M32.8501214,3.7951484 C32.749976,3.7512411 32.6418244,3.72854392 32.5324766,3.72848601 L27.8567395,3.72848601 C27.4141429,3.7298354 27.0556826,4.0882957 27.0543332,4.53089233 L27.0543332,5.41071304 C27.0556826,5.85330967 27.4141429,6.21176996 27.8567395,6.21311935 L32.0742879,6.21311935 C32.3947564,5.42830209 32.6541387,4.6199084 32.8501214,3.7951484 L32.8501214,3.7951484 Z" id="Path_336"></path>
                            <path d="M6.7235321,1.83459821 L6.7235321,0.9547775 C6.72218228,0.512121136 6.3636288,0.153636278 5.92097218,0.152371184 L0.693196728,0.152371184 C0.417574493,0.153330119 0.161788711,0.295871663 0.0159743983,0.529766345 C0.0377233197,1.17495906 0.0969076674,1.81834524 0.19322878,2.45667814 C0.334202659,2.57250646 0.510744577,2.63628934 0.693196728,2.63731172 L5.92081858,2.63731172 C6.36358487,2.63596233 6.72218271,2.2773645 6.7235321,1.83459821 L6.7235321,1.83459821 Z" id="Path_337"></path>
                            <path d="M32.5324766,0.152371184 L27.8568931,0.152371184 C27.4142965,0.153720573 27.0558362,0.512180869 27.0544868,0.9547775 L27.0544868,1.83459821 C27.0558362,2.27719484 27.4142965,2.63565514 27.8568931,2.63700452 L32.5324766,2.63700452 C32.7574533,2.63608648 32.97161,2.54032941 33.1223005,2.37327335 C33.2046707,1.81118906 33.2581426,1.24524814 33.2825053,0.677683129 C33.1664975,0.363309985 32.8675674,0.153942544 32.5324766,0.152371184 L32.5324766,0.152371184 Z" id="Path_338"></path>
                            <path d="M0.447897553,3.77118681 C0.644470552,4.6043767 0.90582214,5.42093993 1.22956787,6.21342655 L5.92081858,6.21342655 C6.36350004,6.21207716 6.72202911,5.8535481 6.7233785,5.41086664 L6.7233785,4.53119953 C6.72202911,4.08851807 6.36350004,3.729989 5.92081858,3.72863961 L0.693043128,3.72863961 C0.609591303,3.7297602 0.52684641,3.74412131 0.447897553,3.77118681 L0.447897553,3.77118681 Z" id="Path_339"></path>
                        </g>
                        <g id="Group_49" transform="translate(29.491351, 44.366741)" fill="#5B330A">
                            <path d="M6.34920894,2.54975973 L1.21021427,2.54975973 C0.545394285,2.54975973 0.00645119933,2.01081665 0.00645119933,1.34599666 C0.00645119933,0.681176671 0.545394285,0.142233585 1.21021427,0.142233585 L6.34920894,0.142233585 C7.01402893,0.142233585 7.55297201,0.681176671 7.55297201,1.34599666 C7.55297201,2.01081665 7.01402893,2.54975973 6.34920894,2.54975973 L6.34920894,2.54975973 Z" id="Path_340"></path>
                            <path d="M19.2749548,2.54975973 L14.1356529,2.54975973 C13.4708329,2.54975973 12.9318899,2.01081665 12.9318899,1.34599666 C12.9318899,0.681176671 13.4708329,0.142233585 14.1356529,0.142233585 L19.2749548,0.142233585 C19.9397748,0.142233585 20.4787179,0.681176671 20.4787179,1.34599666 C20.4787179,2.01081665 19.9397748,2.54975973 19.2749548,2.54975973 Z" id="Path_341"></path>
                        </g>
                        <path d="M39.4822615,25.9679205 C40.2193831,25.9680145 40.9555427,26.0211436 41.6850389,26.1268965 C42.6402772,22.905444 43.1520723,19.1628268 43.1520723,15.22268 C43.1520723,9.567743 42.1006804,4.31600595 40.1914326,0.434841555 C40.0602212,0.168721993 39.7892614,0.000214541534 39.4925527,0.000214541534 C39.195844,0.000214541534 38.9248841,0.168721993 38.7936728,0.434841555 C36.884425,4.31600595 35.8330331,9.567743 35.8330331,15.22268 C35.8330331,19.1617516 36.344521,22.9034472 37.2992985,26.1241317 C38.022312,26.0202139 38.7518182,25.968011 39.4822615,25.9679205 L39.4822615,25.9679205 Z" id="Path_342" fill="#FFFBCA"></path>
                        <path d="M39.4923991,7.02136247 C40.5354859,7.020389 41.5640751,7.26562951 42.4945108,7.73713839 C41.9939284,5.00766668 41.2179413,2.52195814 40.191279,0.434841555 C40.0600676,0.168721993 39.7891078,0.000214541534 39.4923991,0.000214541534 C39.1956904,0.000214541534 38.9247305,0.168721993 38.7935192,0.434841555 C37.7668569,2.52195814 36.9910233,5.00766668 36.4902874,7.73713839 C37.420709,7.2655912 38.4493075,7.02034847 39.4923991,7.02136247 Z" id="Path_343" fill="#0853A4"></path>
                        <g id="Group_50" transform="translate(12.595352, 13.032344)" fill="#C6BA66">
                            <path d="M10.4494069,32.7141854 C10.4494069,32.2486238 10.4696821,31.7876703 10.5073141,31.3317855 L10.4494069,31.8036447 L10.4494069,30.6997216 L1.75319022,33.7910749 C1.34570148,33.9334411 1.04562971,34.2830874 0.966735662,34.7074586 C0.887841615,35.1318299 1.0422032,35.565959 1.37130012,35.8452625 C1.70039704,36.124566 2.15384775,36.2062852 2.55974373,36.0594394 L10.4494069,33.2543965 L10.4494069,32.7141854 Z" id="Path_344"></path>
                            <path d="M11.6597748,21.8377705 L1.52447984,19.7363691 C0.873572125,19.6014031 0.236495597,20.0196565 0.101529589,20.6705642 C-0.0334364182,21.321472 0.384816976,21.9585485 1.03572469,22.0935145 L10.9169653,24.1422311 C11.1075153,23.356843 11.3557934,22.5865957 11.6597748,21.8377705 L11.6597748,21.8377705 Z" id="Path_345"></path>
                            <path d="M16.6809583,15.1130096 L8.6349303,7.60872881 C8.14867942,7.15534991 7.38695898,7.18199792 6.93358008,7.6682488 C6.48020118,8.15449968 6.50684919,8.91622012 6.99310007,9.36959902 L14.9105648,16.7540719 C15.4603309,16.165055 16.0520077,15.6166015 16.6809583,15.1130096 L16.6809583,15.1130096 Z" id="Path_346"></path>
                            <path d="M32.1133023,12.2305523 L35.0730203,1.67255023 C35.1891105,1.25848344 35.0754803,0.813936571 34.774933,0.506366139 C34.4743857,0.198795706 34.0325817,0.0749289788 33.6159443,0.181425359 C33.1993068,0.287921738 32.8711331,0.60860189 32.755043,1.02266869 L29.7676769,11.6766708 C30.5619654,11.8040899 31.3459156,11.989207 32.1133023,12.2305523 L32.1133023,12.2305523 Z" id="Path_347"></path>
                            <path d="M21.7190377,12.3482099 C22.4799845,12.0896385 23.2587469,11.8868112 24.0491495,11.7413364 L21.0160106,0.938956702 C20.8997558,0.524944804 20.5714593,0.204403222 20.154787,0.0980768678 C19.7381148,-0.00824948639 19.2963694,0.11579289 18.995952,0.423478434 C18.6955345,0.731163978 18.5820857,1.17574794 18.6983404,1.58975983 L21.7190377,12.3482099 Z" id="Path_348"></path>
                        </g>
                        <g id="Group_51" transform="translate(12.134552, 12.110744)" fill="#E2D779">
                            <path d="M18.5224685,15.0397424 C19.1982609,14.6035422 19.904777,14.2168911 20.636465,13.8828274 L14.8277745,4.34426835 C14.6059505,3.9729753 14.2019873,3.74922554 13.7695699,3.75814306 C13.3371524,3.76706058 12.9427573,4.00727446 12.7364294,4.38739706 C12.5301015,4.76751965 12.5435602,5.2291137 12.7716851,5.59656902 L18.5224685,15.0397424 Z" id="Path_349"></path>
                            <path d="M36.3377626,14.8792304 L41.888098,5.757081 C42.2336568,5.18909552 42.0533443,4.44852157 41.4853589,4.10296279 C40.9173734,3.757404 40.1767994,3.93771646 39.8312406,4.50570193 L34.200726,13.7597938 C34.9392173,14.0807439 35.6534392,14.4548723 36.3377626,14.8792304 L36.3377626,14.8792304 Z" id="Path_350"></path>
                            <path d="M10.9102069,39.8980566 C10.9105217,38.8973682 11.0012068,37.8987526 11.1811572,36.9143769 L5.14759626,41.1730901 C4.78441425,41.4163598 4.58165237,41.8373937 4.6178924,42.2730173 C4.65413243,42.708641 4.92367817,43.0903831 5.32206531,43.270297 C5.72045244,43.4502108 6.18506261,43.4000175 6.53583292,43.1391699 L10.9102069,40.0518102 L10.9102069,39.8980566 Z" id="Path_351"></path>
                            <path d="M10.9102069,28.9798626 C10.9104274,28.3254555 10.9491503,27.6716283 11.0261748,27.02177 L1.13310708,27.7011427 C0.487530646,27.7472871 -0.0060051466,28.2956441 0.0158541797,28.9424984 C0.037713506,29.5893526 0.56714265,30.1031402 1.21436147,30.1055969 C1.24216307,30.1055969 1.27011827,30.1046753 1.29791986,30.1026785 L10.9100533,29.4421985 L10.9100533,28.9792482 L10.9102069,28.9798626 Z" id="Path_352"></path>
                            <path d="M14.2305777,19.0334956 L4.70661071,14.1055473 C4.32375873,13.8993831 3.85948005,13.9157193 3.49206521,14.1482826 C3.12465038,14.3808458 2.91121811,14.7934815 2.93372987,15.2277309 C2.95624162,15.6619803 3.2111977,16.0503345 3.60069082,16.2436591 L12.9214451,21.0666986 C13.3078843,20.3580814 13.7454191,19.6785497 14.2305777,19.0334956 L14.2305777,19.0334956 Z" id="Path_353"></path>
                            <path d="M27.5572195,12.3844595 C27.8951395,12.3844595 28.2290659,12.3956723 28.5616098,12.4151795 L28.5616098,1.26105587 C28.5616098,0.59623588 28.0226667,0.057292794 27.3578467,0.057292794 C26.6930268,0.057292794 26.1540837,0.59623588 26.1540837,1.26105587 L26.1540837,12.4431347 C26.6168804,12.4051955 27.0845924,12.3844595 27.5572195,12.3844595 Z" id="Path_354"></path>
                        </g>
                        <path d="M39.6917719,24.4952038 C30.4977376,24.4952038 23.0447592,31.9251423 23.0447592,41.0904533 L23.0447592,45.1848145 L23.2622568,43.4134995 C24.6034529,35.3842881 31.5514684,29.5006006 39.6919255,29.5006006 C47.8323826,29.5006006 54.780398,35.3842881 56.1215941,43.4134995 L56.3390917,45.1848145 L56.3390917,41.0904533 C56.3390917,31.9251423 48.8859597,24.4952038 39.6917719,24.4952038 Z" id="Path_355" fill="#971311"></path>
                        <path d="M39.6917719,29.1514338 C30.4977376,29.1514338 23.0447592,36.5813722 23.0447592,45.7466832 L23.0447592,47.7205966 L23.6534759,47.7205966 C25.6806081,40.5412227 32.2319303,35.5835565 39.6920023,35.5835565 C47.1520742,35.5835565 53.7033965,40.5412227 55.7305286,47.7205966 L56.3392453,47.7205966 L56.3392453,45.7466832 C56.3392453,36.5812186 48.8859597,29.1514338 39.6917719,29.1514338 Z" id="Path_356" fill="#0853A4"></path>
                        <g id="Group_52" opacity="0.1" transform="translate(23.040151, 29.006743)" fill="#000000">
                            <path d="M19.2359404,0.343756764 C18.3809187,0.21082506 17.5169142,0.144076785 16.6516207,0.144076785 C7.45758642,0.144076785 0.00460799952,7.57401521 0.00460799952,16.7393263 L0.00460799952,18.7132396 L0.613324736,18.7132396 C1.60119712,15.1985325 3.71933184,12.1071074 6.64028091,9.91687577 C8.95937031,4.80877229 13.6934435,1.21071966 19.2359404,0.343756764 Z" id="Path_357"></path>
                        </g>
                        <path d="M56.0778182,47.4003407 C55.7436256,47.3997356 55.4122272,47.3394483 55.0992327,47.2223183 C54.3069639,49.3684173 53.8771912,52.002657 53.8771912,54.8024775 C53.8771912,58.2025667 54.5094087,61.3602752 55.6575686,63.6936126 C55.7363258,63.8537154 55.8992391,63.9551332 56.0776646,63.9551332 C56.25609,63.9551332 56.4190033,63.8537154 56.4977605,63.6936126 C57.6456132,61.3601216 58.2778307,58.2025667 58.2778307,54.8024775 C58.2778307,52.0028106 57.8477508,49.3687245 57.0560964,47.2223183 C56.7432118,47.3394601 56.411912,47.3997485 56.0778182,47.4003407 L56.0778182,47.4003407 Z" id="Path_358" fill="#0853A4"></path>
                        <ellipse id="Ellipse_20" fill="#971311" cx="56.0776646" cy="46.204872" rx="2.81441251" ry="2.80980451"></ellipse>
                        <path d="M22.9068264,47.4003407 C22.5726864,47.3997075 22.2413434,47.3394207 21.9283945,47.2223183 C21.1358186,49.3684173 20.706353,52.002657 20.706353,54.8024775 C20.706353,58.2025667 21.3385706,61.3602752 22.4867305,63.6936126 C22.5655195,63.8536299 22.7283869,63.9549771 22.9067496,63.9549771 C23.0851123,63.9549771 23.2479798,63.8536299 23.3267688,63.6936126 C24.474775,61.3601216 25.1071462,58.2025667 25.1071462,54.8024775 C25.1071462,52.0028106 24.6770662,49.3687245 23.8852583,47.2223183 C23.57232,47.339459 23.2409701,47.399747 22.9068264,47.4003407 L22.9068264,47.4003407 Z" id="Path_359" fill="#0853A4"></path>
                        <ellipse id="Ellipse_21" fill="#971311" cx="22.906212" cy="46.204872" rx="2.81441251" ry="2.80980451"></ellipse>
                        <path d="M64.2117053,47.1147983 L58.6882499,45.1534801 C59.0173298,45.9666615 58.9459087,46.8871179 58.4953283,47.639803 L63.406227,49.38347 C64.030614,49.5985475 64.7117018,49.2704251 64.9326568,48.6480938 C65.1536118,48.0257625 64.8319257,47.3416112 64.2117053,47.1147983 Z" id="Path_360" fill="#C6BA66"></path>
                    </g>
                </g>
            </g>
        </g>
    </g>
</svg>