<?xml version="1.0" encoding="UTF-8"?>
<svg width="70px" height="79px" viewBox="0 0 70 79" version="1.1" xmlns="http://www.w3.org/2000/svg" xmlns:xlink="http://www.w3.org/1999/xlink">
    <!-- Generator: Sketch 63.1 (92452) - https://sketch.com -->
    <title>007-rapper</title>
    <desc>Created with Sketch.</desc>
    <g id="Page-1" stroke="none" stroke-width="1" fill="none" fill-rule="evenodd">
        <g id="Group-Copy" transform="translate(-431.000000, -368.000000)" fill-rule="nonzero">
            <g id="Group-10" transform="translate(112.000000, 200.000000)">
                <g id="Group-9">
                    <g id="007-rapper" transform="translate(319.199981, 167.999990)">
                        <path d="M7.10952886,26.2444005 C5.07036302,26.2435229 3.15547993,25.2641452 1.96123439,23.6112763 C0.766988846,21.9584074 0.438460977,19.8328422 1.07796469,17.8965485 C1.14970764,17.6785091 1.32072517,17.5074915 1.53876464,17.4357486 C3.81824553,16.6851973 6.32611773,17.2826777 8.02231641,18.9804028 C9.7185151,20.6781279 10.3137395,23.1865365 9.5611382,25.4653413 C9.48943838,25.6834074 9.31840426,25.8544415 9.10033825,25.9261413 C8.45778582,26.1375115 7.78564677,26.2451014 7.10922166,26.2448617 L7.10952886,26.2444005 Z" id="Path_53" fill="#4D4D4D"></path>
                        <path d="M3.53003483,32.1623006 C2.85325993,32.1627614 2.18076998,32.0549378 1.53799664,31.8431199 C1.32003827,31.7716849 1.14899517,31.6009268 1.07719669,31.3830879 C0.324989015,29.1042251 0.920465646,26.5959861 2.61671348,24.8984068 C4.31296131,23.2008275 6.82073232,22.603383 9.10018465,23.3538024 C9.31825066,23.4255022 9.48928478,23.5965363 9.5609846,23.8146023 C10.2005122,25.7508545 9.87206651,27.8763899 8.67792845,29.5292971 C7.4837904,31.1822044 5.5690151,32.1617005 3.52988123,32.1627614 L3.53003483,32.1623006 Z" id="Path_54" fill="#898F93"></path>
                        <path d="M58.1285315,61.0252736 L41.86429,56.3343301 L41.86429,57.963258 C41.8642901,62.2311283 39.5874084,66.1748031 35.8913243,68.3087383 C32.1952402,70.4426735 27.6414768,70.4426735 23.9453927,68.3087383 C20.2493085,66.1748031 17.9724269,62.2311283 17.9724269,57.963258 L17.9724269,56.3347909 L1.70849262,61.0252736 C0.81230372,61.3266252 0.194207796,62.1487178 0.153599984,63.0933438 L0.153599984,77.02348 C0.155791291,77.9165138 0.878744456,78.6401532 1.77177582,78.6431918 L58.0661699,78.6431918 C58.9590818,78.640154 59.6819858,77.9167011 59.6843458,77.0237872 L59.6843458,63.0938046 C59.6435687,62.1488445 59.0251015,61.3265621 58.1285315,61.0252736 Z" id="Path_55" fill="#0853A4"></path>
                        <path d="M31.4737119,53.337748 C30.4517407,53.091067 29.3857442,53.091067 28.363773,53.337748 L17.8114541,56.3810245 L17.8114541,57.9631044 C17.8114541,62.2883201 20.1189292,66.2849843 23.8646759,68.4475922 C27.6104226,70.6102 32.2253728,70.6102 35.9711195,68.4475922 C39.7168662,66.2849843 42.0243412,62.2883201 42.0243412,57.9631044 L42.0243412,56.3810245 L31.4737119,53.337748 Z" id="Path_56" fill="#FFF7EE"></path>
                        <path d="M29.9186657,55.8526406 C27.1045372,55.8304164 24.3367788,55.1336045 21.8475238,53.8206664 L21.8475238,57.9635652 C21.8349852,60.8554391 23.3705418,63.5330551 25.8728966,64.9826461 C28.3752515,66.4322372 31.4619263,66.4322372 33.9642811,64.9826461 C36.466636,63.5330551 38.0021926,60.8554391 37.989654,57.9635652 L37.989654,53.8214344 C35.5003823,55.1340931 32.7326803,55.8306407 29.9186657,55.8526406 Z" id="Path_57" fill="#7A481B"></path>
                        <path d="M27.032522,57.9635652 L27.032522,55.5932102 C25.2243485,55.2681747 23.4760122,54.6704631 21.8472888,53.8205128 L21.8472888,57.9634116 C21.8444213,60.5666829 23.0977107,63.0114186 25.2130297,64.5288029 C27.3283487,66.0461872 30.0458054,66.4497914 32.510819,65.6126908 C29.2351772,64.4991305 27.0322784,61.4233116 27.032522,57.9635652 L27.032522,57.9635652 Z" id="Path_58" fill="#231F20" opacity="0.1"></path>
                        <path d="M5.7395706,60.2853825 C5.7395706,60.1433025 5.7457146,60.0012225 5.754009,59.8588354 L1.70849262,61.0252736 C0.81230372,61.3266252 0.194207796,62.1487178 0.153599984,63.0933438 L0.153599984,77.02348 C0.155791291,77.9165138 0.878744456,78.6401532 1.77177582,78.6431918 L5.7397242,78.6431918 L5.7397242,60.2853825 L5.7395706,60.2853825 Z" id="SVGCleanerId_0" fill="#231F20" opacity="0.1"></path>
                        <g id="Group_9" transform="translate(0.001997, 59.750394)" fill="#231F20" opacity="0.1">
                            <path d="M5.7375738,0.534988744 C5.7375738,0.392908759 5.7437178,0.250828774 5.7520122,0.108441589 L1.70649582,1.27487987 C0.81030692,1.57623142 0.192210996,2.39832403 0.151603184,3.34295005 L0.151603184,17.2730862 C0.153794491,18.16612 0.876747656,18.8897594 1.76977902,18.892798 L5.7377274,18.892798 L5.7377274,0.534988744 L5.7375738,0.534988744 Z" id="SVGCleanerId_0_1_"></path>
                        </g>
                        <g id="Group_10" transform="translate(4.302796, 27.801597)" fill="#7A481B">
                            <path d="M8.75796389,9.71842459 C8.75399473,10.7302222 7.93363343,11.5488679 6.92182968,11.5507188 L1.97775339,11.5507188 C0.966018942,11.5487849 0.145687048,10.7303057 0.141465585,9.71857819 L0.141465585,1.96730859 C0.145688629,0.955681201 0.966118445,0.137378807 1.97775339,0.135782386 L6.92182968,0.135782386 C7.93340467,0.137463194 8.75374123,0.955741016 8.75796389,1.96730859 L8.75796389,9.71842459 Z" id="Path_59"></path>
                            <path d="M2.67525092,9.71842459 L2.67525092,1.96730859 C2.67947358,0.955741016 3.49981013,0.137463194 4.51138513,0.135782386 L1.97698539,0.135782386 C0.965420002,0.137546647 0.145088288,0.955751193 0.140697585,1.96730859 L0.140697585,9.71842459 C0.144752871,10.7305462 0.965624708,11.5492903 1.97775339,11.5507188 L4.51215313,11.5507188 C3.5000844,11.5492059 2.67930584,10.7304863 2.67525092,9.71842459 Z" id="Path_60" opacity="0.1"></path>
                            <path d="M51.0899659,9.71842459 C51.0858282,10.7302719 50.2653785,11.5488688 49.2535245,11.5507188 L44.309909,11.5507188 C43.2982597,11.5487001 42.4780652,10.7302211 42.4739284,9.71857819 L42.4739284,1.96730859 C42.4780668,0.955765832 43.2983591,0.137463641 44.309909,0.135782386 L49.2535245,0.135782386 C50.2651498,0.137462279 51.0855748,0.955691386 51.0899659,1.96730859 L51.0899659,9.71842459 Z" id="Path_61"></path>
                        </g>
                        <path d="M29.9183585,3.24848606 C18.4905197,3.29087966 9.22460064,12.3597299 9.22659711,23.5164647 L9.22659711,33.7230301 C9.22659711,44.8653265 18.4782317,56.6094277 29.9185121,56.6383045 C41.3586389,56.6092741 50.6108875,44.8651729 50.6104267,33.7230301 L50.6104267,23.5161575 C50.6113483,12.3594227 41.3461973,3.29087966 29.9183585,3.24848606 Z" id="Path_62" fill="#8C561F"></path>
                        <path d="M14.4497649,33.7230301 L14.4497649,23.5161575 C14.4477681,13.2234226 22.3346665,4.70768591 32.5298654,3.41790684 C31.6637242,3.30840334 30.7916963,3.251978 29.9186657,3.24894686 C18.4908269,3.29118686 9.22506144,12.3600371 9.22705791,23.5167719 L9.22705791,33.7233373 C9.22705791,44.8656337 18.4786925,56.6097349 29.9189729,56.6386117 C30.793549,56.6361287 31.6665983,56.5654117 32.5301726,56.4271045 C22.3259113,54.7960263 14.4491505,44.0036306 14.4497649,33.7230301 Z" id="Path_63" fill="#231F20" opacity="0.1"></path>
                        <rect id="Rectangle_2" fill="#58595B" x="9.22675104" y="18.0334061" width="41.3839829" height="8.37304233"></rect>
                        <path d="M30.281008,42.1171156 C28.1152483,42.1171156 26.3534565,40.4660694 26.3534565,38.4363992 L26.3534565,31.7908959 C26.3534565,31.1260759 26.8923995,30.5871328 27.5572195,30.5871328 C28.2220395,30.5871328 28.7609826,31.1260759 28.7609826,31.7908959 L28.7609826,38.4363992 C28.7609826,39.1383511 29.4429665,39.7095895 30.2816224,39.7095895 C30.9864928,39.7095895 31.6105695,39.2908759 31.7655519,38.7136472 C31.940397,38.0744323 32.5990119,37.696759 33.2390105,37.8687134 C33.8790091,38.0406678 34.2596551,38.6975691 34.0905948,39.3383383 C33.6500701,40.9744853 32.0838111,42.1171156 30.281008,42.1171156 Z" id="Path_64" fill="#5B330A"></path>
                        <path d="M67.7981113,17.6332782 L48.9421773,17.6332782 L48.9421773,21.6115177 L67.7981113,21.6115177 C68.7837839,21.6085652 69.5820721,20.8102083 69.5849399,19.8245355 L69.5849399,19.419646 C69.581735,18.4342131 68.783545,17.6362289 67.7981113,17.6332782 L67.7981113,17.6332782 Z" id="Path_65" fill="#E02424"></path>
                        <path d="M9.22659744,21.6125929 L50.6105803,21.6125929 L50.6105803,16.3958767 C50.6105803,12.0476235 48.8836425,7.87738255 45.8091072,4.80255921 C42.7345719,1.72773587 38.5644928,0 34.2162396,0 L25.6209381,0 C21.2726725,0 17.1025697,1.72768205 14.0280255,4.80251422 C10.9534814,7.87734639 9.22659744,12.047611 9.22659744,16.3958767 L9.22659744,21.6125929 Z" id="Path_66" fill="#0853A4"></path>
                        <g id="Group_11" transform="translate(3.534796, 36.863996)" fill="#D8B26B">
                            <path d="M6.18608575,2.75527651 C6.50806102,3.07935057 6.50806102,3.60255594 6.18608575,3.92662999 L3.8180348,6.29683134 C3.49443274,6.61893406 2.97135858,6.61893406 2.64775652,6.29683134 L0.279859171,3.92662999 C-0.0419484077,3.60248682 -0.0419484077,3.07941969 0.279859171,2.75527651 L2.64775652,0.38507516 C2.97135858,0.06297244 3.49443274,0.06297244 3.8180348,0.38507516 L6.18608575,2.75527651 Z" id="Path_67"></path>
                            <path d="M52.4877257,2.75527651 C52.8095333,3.07941969 52.8095333,3.60248682 52.4877257,3.92662999 L50.1196748,6.29683134 C49.7960727,6.61893406 49.2729986,6.61893406 48.9493965,6.29683134 L46.5814991,3.92662999 C46.2595239,3.60255594 46.2595239,3.07935057 46.5814991,2.75527651 L48.9493965,0.38507516 C49.2729986,0.06297244 49.7960727,0.06297244 50.1196748,0.38507516 L52.4877257,2.75527651 Z" id="Path_68"></path>
                        </g>
                        <path d="M30.8448736,0 L25.6209381,0 C21.2726725,0 17.1025697,1.72768205 14.0280255,4.80251422 C10.9534814,7.87734639 9.22635301,12.047611 9.22659744,16.3958767 L9.22659744,21.6125929 L14.4497649,21.6125929 L14.4497649,16.3958767 C14.4495612,12.0474904 16.1768081,7.8771331 19.2515095,4.80228768 C22.3262109,1.72744227 26.4964873,0 30.8448736,0 L30.8448736,0 Z" id="Path_69" fill="#231F20" opacity="0.1"></path>
                        <path d="M17.3938158,21.4941674 L17.3938158,18.704638 C17.391455,17.8138103 16.6701526,17.0920962 15.7793264,17.089227 L9.22659744,17.089227 L9.22659744,21.6127465 L17.3878254,21.6127465 C17.3904366,21.5732713 17.3938158,21.5347178 17.3938158,21.4941674 Z" id="Path_70" fill="#8C561F"></path>
                        <path d="M17.3938158,21.4941674 L17.3938158,18.704638 C17.391455,17.8138103 16.6701526,17.0920962 15.7793264,17.089227 L9.22659744,17.089227 L9.22659744,21.6127465 L17.3878254,21.6127465 C17.3904366,21.5732713 17.3938158,21.5347178 17.3938158,21.4941674 Z" id="Path_71" fill="#E02424"></path>
                        <g id="Group_12" transform="translate(18.280395, 43.007996)" fill="#5B330A">
                            <path d="M15.3446384,7.75833519 L7.93098157,7.75833519 C7.26616158,7.75833519 6.7272185,7.2193921 6.7272185,6.55457212 C6.7272185,5.88975213 7.26616158,5.35080904 7.93098157,5.35080904 L15.3446384,5.35080904 C16.0094584,5.35080904 16.5484015,5.88975213 16.5484015,6.55457212 C16.5484015,7.2193921 16.0094584,7.75833519 15.3446384,7.75833519 Z" id="Path_72"></path>
                            <path d="M14.1820401,0.0420863956 C13.7589447,-0.0593490105 13.3140424,0.0754493556 13.0183939,0.394652799 C12.7227454,0.713856242 12.6223805,1.16776765 12.7558887,1.58186239 C12.8893968,1.99595713 13.2359919,2.30576437 13.6624114,2.39216615 C17.7104573,3.29353211 20.6811899,6.75349863 20.959793,10.8913141 C21.7329241,10.4176914 22.4753215,9.89563793 23.1825384,9.32828063 C22.3057052,4.71340275 18.7672746,1.06265446 14.1820401,0.0420863956 L14.1820401,0.0420863956 Z" id="Path_73"></path>
                            <path d="M2.31659496,10.8919285 C2.59514834,6.7540927 5.56590307,3.29410045 9.6139766,2.39278055 C10.0403961,2.30637877 10.3869912,1.99657153 10.5204993,1.58247679 C10.6540074,1.16838205 10.5536426,0.714470642 10.2579941,0.395267199 C9.96234558,0.0760637555 9.51744327,-0.0587346106 9.09434785,0.0427007955 C4.50871988,1.06302764 0.969975871,4.71409355 0.0933887903,9.32935583 C0.800699734,9.89666137 1.54325704,10.4185652 2.31659496,10.8919285 L2.31659496,10.8919285 Z" id="Path_74"></path>
                        </g>
                        <g id="Group_13" transform="translate(9.217996, 24.575997)" fill="#414042">
                            <path d="M16.1413615,0.0334847965 L4.58388432,0.0334847965 C2.06484458,0.0334847965 0.0153599984,2.01968619 0.0153599984,4.46115793 L0.0153599984,8.86732708 C0.0153599984,13.7382898 4.23045076,17.7008622 9.41168542,17.7008622 C14.4855537,17.7008622 18.6943469,13.8263026 18.804478,9.05994145 C18.8069356,9.01386146 18.8077222,8.96778146 18.8077222,8.92262307 L18.8077222,2.72563172 C18.8131503,1.24661245 17.6203646,0.0422830506 16.1413615,0.0334847965 Z" id="Path_75"></path>
                            <path d="M36.8179162,0.0334847965 L25.2601318,0.0334847965 C23.7811288,0.0421142716 22.5882062,1.24630577 22.593465,2.72532452 L22.593465,8.92231587 C22.593465,8.96732066 22.5947112,9.01201826 22.596708,9.05610146 C22.704228,13.8244594 26.9139428,17.700555 31.9895007,17.700555 C37.1704281,17.700555 41.3855189,13.7376754 41.3855189,8.86701988 L41.3855189,4.46085073 C41.3855189,2.01968619 39.3369559,0.0334847965 36.8179162,0.0334847965 Z" id="Path_76"></path>
                            <path d="M24.8437222,3.78362841 L16.3107823,3.78362841 C15.6459623,3.78362841 15.1070192,4.32257149 15.1070192,4.98739148 C15.1070192,5.65221147 15.6459623,6.19115455 16.3107823,6.19115455 L24.8437222,6.19115455 C25.5085422,6.19115455 26.0474853,5.65221147 26.0474853,4.98739148 C26.0474853,4.32257149 25.5085422,3.78362841 24.8437222,3.78362841 Z" id="Path_77"></path>
                        </g>
                        <g id="Group_14" transform="translate(18.587595, 33.331197)" fill="#FFFFFF">
                            <path d="M1.27487987,6.46440893 C0.610059879,6.46440893 0.0711167926,5.92546584 0.0711167926,5.26064585 C0.0711167926,4.59582586 0.610059879,4.05688278 1.27487987,4.05688278 C3.13605087,4.05688278 4.67542991,2.81748451 4.70661071,1.29423347 C4.70661071,1.27150067 4.70783951,1.24170227 4.70906831,1.21190387 C4.7327717,0.564989292 5.26379333,0.0526273786 5.91114178,0.0520703946 C5.92650178,0.0520703946 5.94186178,0.0520703946 5.95614658,0.0529919945 C6.27516391,0.0645931697 6.57649743,0.202484611 6.79382156,0.436315463 C7.01114568,0.670146314 7.12664771,0.980750919 7.11490486,1.29976306 L7.11490486,1.30053106 L7.11367606,1.33708786 C7.05607606,4.16732117 4.43704274,6.46440893 1.27487987,6.46440893 Z" id="Path_78"></path>
                            <path d="M23.7447143,6.47193532 C23.0798943,6.47193532 22.5409512,5.93299224 22.5409512,5.26817225 C22.5409512,4.60335226 23.0798943,4.06440918 23.7447143,4.06440918 C25.6378341,4.06440918 27.1779812,2.80412131 27.1779812,1.25491187 C27.1779811,0.82484872 27.4074171,0.427453967 27.7798627,0.212422382 C28.1523083,-0.00260920305 28.6111802,-0.00260920305 28.9836258,0.212422382 C29.3560714,0.427453967 29.5855073,0.82484872 29.5855073,1.25491187 C29.5855073,4.13183957 26.9653988,6.47193532 23.7447143,6.47193532 Z" id="Path_79"></path>
                        </g>
                    </g>
                </g>
            </g>
        </g>
    </g>
</svg>