<?xml version="1.0" encoding="UTF-8"?>
<svg width="69px" height="80px" viewBox="0 0 69 80" version="1.1" xmlns="http://www.w3.org/2000/svg" xmlns:xlink="http://www.w3.org/1999/xlink">
    <!-- Generator: Sketch 63.1 (92452) - https://sketch.com -->
    <title>009-director-chair</title>
    <desc>Created with Sketch.</desc>
    <g id="Page-1" stroke="none" stroke-width="1" fill="none" fill-rule="evenodd">
        <g id="Group-Copy" transform="translate(-144.000000, -509.000000)" fill-rule="nonzero">
            <g id="Group-10" transform="translate(112.000000, 200.000000)">
                <g id="Group-9">
                    <g id="009-director-chair" transform="translate(31.999998, 309.599982)">
                        <g id="Group_18" transform="translate(22.476439, 48.998395)" fill="#84674F">
                            <polygon id="Path_93" points="5.7343482 20.5536747 3.31530205 22.9909992 20.0318955 22.9909992 17.6128494 20.5536747"></polygon>
                            <path d="M2.12259818,2.46512614 L21.224753,2.46512614 L23.2263144,0.448511953 C22.9955291,0.181240007 22.6598346,0.0276627396 22.3067113,0.027801503 L1.04048629,0.027801503 C0.687380722,0.0277445176 0.351718698,0.18130695 0.120883187,0.448511953 L2.12259818,2.46512614 Z" id="Path_94"></path>
                        </g>
                        <path d="M51.0127051,42.3710164 L17.9702765,75.6633521 L23.7812711,75.6633521 L56.4639685,42.7336659 C56.5629429,42.6323388 56.6346038,42.5075663 56.6722501,42.3710164 L51.0127051,42.3710164 Z" id="Path_95" fill="#E2C3AA"></path>
                        <path d="M50.3297996,75.6633521 L17.2870638,42.3710164 L11.6276724,42.3710164 C11.6654126,42.5075611 11.7371204,42.6323233 11.8361076,42.7336659 L44.518805,75.6633521 L50.3297996,75.6633521 Z" id="Path_96" fill="#BFA083"></path>
                        <rect id="Rectangle_5" fill="#58595B" x="11.7574644" y="4.18728916" width="44.7865297" height="21.1132394"></rect>
                        <rect id="Rectangle_6" fill="#000000" opacity="0.1" x="11.7574644" y="4.18728916" width="6.97190327" height="21.1132394"></rect>
                        <g id="Group_19" transform="translate(8.806041, 0.000000)" fill="#BFA083">
                            <path d="M4.11494357,38.538236 L4.11494357,0.846182312 C4.11342519,0.379359284 3.73527761,0.00134893432 3.26845406,9.4252063e-17 L0.852326311,9.4252063e-17 C0.385562745,0.00143321447 0.00750833359,0.379419013 0.00599039938,0.846182312 L0.00599039938,38.538236 L4.11494357,38.538236 Z" id="Path_97"></path>
                            <path d="M50.6818507,38.538236 L50.6818507,0.846182312 C50.6803328,0.379419013 50.3022784,0.00143321447 49.8355148,-9.4252063e-17 L47.4193871,-9.4252063e-17 C46.9525635,0.00134893432 46.5744159,0.379359284 46.5728975,0.846182312 L46.5728975,38.538236 L50.6818507,38.538236 Z" id="Path_98"></path>
                        </g>
                        <path d="M38.0795864,20.7882218 C38.015315,20.7880659 37.9520499,20.7722496 37.8952664,20.7421418 L34.150038,18.7759084 L30.405424,20.7419882 C30.2716217,20.8125362 30.109364,20.8009657 29.9869263,20.7121453 C29.8644885,20.6233249 29.8031248,20.4726732 29.8286561,20.3235819 L30.5438176,16.1581039 L27.5145187,13.2085234 C27.4062036,13.1029872 27.367244,12.9450848 27.4140382,12.8012781 C27.4608325,12.6574714 27.5852546,12.5527329 27.7349347,12.5311475 L31.9214559,11.923506 L33.7938397,8.13404075 C33.8608404,7.99832722 33.9990706,7.91241224 34.150422,7.91241224 C34.3017735,7.91241224 34.4400037,7.99832722 34.5070044,8.13404075 L36.3792346,11.923506 L40.5659094,12.5311475 C40.7155458,12.5527944 40.8399172,12.6575156 40.8867303,12.8012799 C40.9335433,12.9450443 40.8946793,13.1029188 40.7864789,13.2085234 L37.7565657,16.1587183 L38.4717272,20.3241963 C38.4914144,20.4397035 38.4591593,20.558014 38.3835719,20.6475464 C38.3079846,20.7370788 38.1967593,20.7886827 38.0795864,20.7886827 L38.0795864,20.7882218 Z" id="Path_99" fill="#D8B26B"></path>
                        <rect id="Rectangle_7" fill="#58595B" x="3.91541719" y="37.7487321" width="60.4686273" height="5.27708105"></rect>
                        <g id="Group_20" transform="translate(0.050842, 28.415997)" fill="#BFA083">
                            <path d="M68.0956345,13.7642482 C68.094117,14.2310366 67.716087,14.6090666 67.2492986,14.6105841 L64.1885117,14.6105841 C63.7216633,14.6091509 63.3435401,14.2310963 63.3420222,13.7642482 L63.3420222,0.967679899 C63.3436248,0.500916862 63.7217479,0.122999667 64.1885117,0.121651187 L67.2492986,0.121651187 C67.7160373,0.12300012 68.0941161,0.500941702 68.0956345,0.967679899 L68.0956345,13.7642482 L68.0956345,13.7642482 Z" id="Path_100"></path>
                            <path d="M4.85621709,13.7642482 C4.85469916,14.2310963 4.47657598,14.6091509 4.00972758,14.6105841 L0.949094301,14.6105841 C0.482271017,14.6091504 0.104192054,14.2310714 0.102758389,13.7642482 L0.102758389,0.967679899 C0.104276768,0.500941702 0.482355584,0.12300012 0.949094301,0.121651187 L4.00988118,0.121651187 C4.47664502,0.122999667 4.85476805,0.500916862 4.85637069,0.967679899 L4.85637069,13.7642482 L4.85621709,13.7642482 Z" id="Path_101"></path>
                        </g>
                        <g id="Group_21" transform="translate(14.335640, 74.956792)" fill="#84674F">
                            <path d="M13.166437,2.8402173 C13.1649186,3.30704033 12.7867711,3.68505068 12.3199475,3.68639962 L0.889497507,3.68639962 C0.422733941,3.6849664 0.0446795297,3.3069806 0.0431615955,2.8402173 L0.0431615955,0.909926305 C0.0445118008,0.44309322 0.422664185,0.0650094662 0.889497507,0.0637439934 L12.3199475,0.0637439934 C12.7868059,0.0650090536 13.1650025,0.443068377 13.166437,0.909926305 L13.166437,2.8402173 Z" id="Path_102"></path>
                            <path d="M39.5854807,2.8402173 C39.5839627,3.3069806 39.2059083,3.6849664 38.7391448,3.68639962 L27.3086948,3.68639962 C26.8418712,3.68505068 26.4637236,3.30704033 26.4622052,2.8402173 L26.4622052,0.909926305 C26.4637236,0.443103278 26.8418712,0.0650929277 27.3086948,0.0637439934 L38.7391448,0.0637439934 C39.2059432,0.0650933659 39.5840466,0.443128121 39.5854807,0.909926305 L39.5854807,2.8402173 Z" id="Path_103"></path>
                        </g>
                    </g>
                </g>
            </g>
        </g>
    </g>
</svg>