<?xml version="1.0" encoding="UTF-8"?>
<svg width="62px" height="80px" viewBox="0 0 62 80" version="1.1" xmlns="http://www.w3.org/2000/svg" xmlns:xlink="http://www.w3.org/1999/xlink">
    <!-- Generator: Sketch 63.1 (92452) - https://sketch.com -->
    <title>011-fifth-avenue</title>
    <desc>Created with Sketch.</desc>
    <g id="Page-1" stroke="none" stroke-width="1" fill="none" fill-rule="evenodd">
        <g id="Group-Copy" transform="translate(-435.000000, -509.000000)" fill-rule="nonzero">
            <g id="Group-10" transform="translate(112.000000, 200.000000)">
                <g id="Group-9">
                    <g id="011-fifth-avenue" transform="translate(323.199981, 309.599982)">
                        <path d="M59.7732802,11.8030836 L49.0520013,11.8030836 C45.8308482,4.62128518 38.6932306,-4.62471954e-05 30.8221408,-4.62471954e-05 C22.951051,-4.62471954e-05 15.8134333,4.62128518 12.5922803,11.8030836 L1.8710014,11.8030836 C0.841477819,11.8031539 0.00540875721,12.6348988 -1.09139353e-15,13.6644082 L-1.09139353e-15,76.782328 C0.0056595475,77.8113577 0.841188206,78.6431918 1.8702334,78.6431918 L59.7731266,78.6431918 C60.8023162,78.6431918 61.6379382,77.8111954 61.6435136,76.7820208 L61.6435136,13.6644082 C61.6381903,12.6351632 60.8025388,11.8034923 59.7732802,11.8030836 L59.7732802,11.8030836 Z" id="Path_104" fill="#006837"></path>
                        <path d="M4.67589071,73.9246003 L4.67589071,16.3898863 L12.5916659,16.3898863 C14.4377244,16.3920496 16.1123499,15.3081463 16.8663534,13.6230898 C19.3317614,8.12479938 24.7958722,4.5866088 30.8216032,4.5866088 C36.8473342,4.5866088 42.311445,8.12479938 44.7768529,13.6230898 C45.5307403,15.3081755 47.2053493,16.392107 49.0513869,16.3898863 L56.9677765,16.3898863 L56.9677765,73.9246003 L4.67589071,73.9246003 Z" id="Path_105" fill="#39B54A"></path>
                        <g id="Group_22" transform="translate(11.468082, 27.187197)" fill="#FFFFFF">
                            <path d="M28.809981,42.8543955 C28.6782509,42.8543955 28.5519183,42.8020554 28.4587854,42.7088938 C28.3656525,42.6157321 28.3133515,42.4893833 28.3133922,42.3576532 L28.3133922,38.4869336 L0.505804747,38.4869336 C0.374047994,38.4869743 0.24767595,38.4346522 0.154509852,38.3414861 C0.0613437541,38.24832 0.00906237526,38.121948 0.00906237526,37.9901912 L0.00906237526,32.0744415 C0.00906237526,31.9427113 0.0614024985,31.8163787 0.154564178,31.7232459 C0.247725857,31.630113 0.374074612,31.577812 0.505804747,31.5778527 L28.3132386,31.5778527 L28.3132386,27.7727203 C28.3133172,27.5833321 28.4210794,27.4104674 28.5910887,27.3270124 C28.761098,27.2435575 28.9637691,27.2640353 29.1136482,27.3798115 L38.5053656,34.6391004 C38.6266579,34.7329763 38.6981316,34.8776048 38.6981316,35.0309814 C38.6981316,35.1843581 38.6279421,35.3292917 38.5070552,35.4236891 L29.1154914,42.7491795 C29.0282601,42.8173815 28.9207095,42.8543955 28.809981,42.8543955 L28.809981,42.8543955 Z" id="Path_106"></path>
                            <path d="M6.00468417,6.90355128 C5.96290498,6.90355128 5.92158658,6.90600888 5.88088259,6.90984888 C5.84048579,6.90600888 5.7990138,6.90355128 5.7580026,6.90355128 L2.49707494,6.90355128 L2.49707494,2.51627494 L9.96556696,2.51627494 C10.6513402,2.51627494 11.2072692,1.96034589 11.2072692,1.27457267 C11.2072692,0.588799439 10.6513402,0.0328703966 9.96556696,0.0328703966 L1.25445107,0.0328703966 C0.925131152,0.0328703966 0.60929932,0.163692224 0.376434973,0.396556571 C0.143570627,0.629420918 0.0127487987,0.945252749 0.0127487987,1.27457267 L0.0127487987,8.14540715 C0.0127487987,8.47472707 0.143570627,8.7905589 0.376434973,9.02342325 C0.60929932,9.25628759 0.925131152,9.38710942 1.25445107,9.38710942 L5.7573882,9.38710942 C5.7991674,9.38710942 5.84048579,9.38465182 5.88026819,9.38081182 C5.92097218,9.38465182 5.96244418,9.38710942 6.00406977,9.38710942 C7.92169161,9.39924957 9.53096786,10.8357618 9.75987622,12.7397108 C9.98878457,14.6436598 8.76586572,16.4206817 6.9057693,16.8870101 C5.04567287,17.3533385 3.12907315,16.3633977 2.43271655,14.5766385 C2.27295206,14.1603441 1.90224116,13.8616768 1.46148452,13.7941545 C1.02072787,13.7266323 0.57760744,13.9006238 0.300545461,14.249998 C0.0234834812,14.5993722 -0.0449748047,15.0704797 0.121190387,15.4842608 C1.26777836,18.4586075 4.45234909,20.1109851 7.54438674,19.3359333 C10.6364244,18.5608815 12.6650732,15.6017556 12.273143,12.438246 C11.8812127,9.27473645 9.19176383,6.90014019 6.00406977,6.90309048 L6.00468417,6.90355128 Z" id="Path_107"></path>
                            <path d="M22.3931881,3.21023967 C22.1969678,2.75490364 21.7486776,2.45994405 21.2528618,2.45994405 C20.757046,2.45994405 20.3087558,2.75490364 20.1125355,3.21023967 L14.890904,15.325592 C14.6194451,15.9554616 14.9099944,16.6861328 15.539864,16.9575918 C16.1697336,17.2290508 16.9004048,16.9385015 17.1718638,16.3086319 L18.6797549,12.8097779 L23.8265831,12.8097779 L25.3346278,16.3086319 C25.5083526,16.7188855 25.8885531,17.0046241 26.330936,17.0574043 C26.7733189,17.1101845 27.2100727,16.9219159 27.475441,16.56405 C27.7408093,16.206184 27.7941147,15.7335769 27.6151267,15.325592 L22.3931881,3.21023967 Z M19.7498859,10.3256053 L21.2528618,6.83811769 L22.755684,10.3256053 L19.7498859,10.3256053 Z" id="Path_108"></path>
                            <path d="M26.517962,2.56066533 C26.2153833,2.69107151 25.9770298,2.93637617 25.8553732,3.24257763 C25.7337165,3.54877909 25.7387297,3.89077558 25.8693093,4.19327956 L31.0906336,16.3086319 C31.2868538,16.7639679 31.735144,17.0589275 32.2309598,17.0589275 C32.7267756,17.0589275 33.1750658,16.7639679 33.3712861,16.3086319 L38.5936856,4.19327956 C38.8651445,3.56340992 38.5745953,2.8327387 37.9447256,2.56127973 C37.314856,2.28982076 36.5841848,2.58037002 36.3127258,3.21023967 L32.2309598,12.6799859 L28.1495011,3.21023967 C28.0194563,2.90759935 27.7744216,2.66908023 27.4683873,2.54723696 C27.162353,2.42539369 26.8204319,2.43022463 26.517962,2.56066533 Z" id="Path_109"></path>
                        </g>
                        <g id="Group_23" transform="translate(22.373681, 9.523199)" fill="#006837">
                            <path d="M3.06739167,1.32095986 C3.06739167,2.00673309 3.62332072,2.56266213 4.30909395,2.56266213 L12.5872115,2.56266213 C13.2729423,2.56266213 13.828837,2.00676747 13.828837,1.32103666 C13.828837,0.63530585 13.2729423,0.0794111536 12.5872115,0.0794111536 L4.30909395,0.0794111536 C3.97977567,0.0793296949 3.66391977,0.210104265 3.43104217,0.442953058 C3.19816457,0.67580185 3.06739167,0.991641574 3.06739167,1.32095986 Z" id="Path_110"></path>
                            <path d="M0.0109055132,5.62606021 C0.0109055132,6.31174861 0.566765872,6.86760888 1.25245427,6.86760888 L15.6438512,6.86760888 C16.329582,6.86760888 16.8854766,6.31171423 16.8854766,5.62598341 C16.8854766,4.9402526 16.329582,4.3843579 15.6438512,4.3843579 L1.25245427,4.3843579 C0.923123486,4.38427641 0.607260069,4.51507696 0.374402436,4.7479634 C0.141544803,4.98084985 0.0109055132,5.29672944 0.0109055132,5.62606021 Z" id="Path_111"></path>
                        </g>
                        <g id="Group_24" transform="translate(4.556083, 21.350398)" fill="#FFFFFF">
                            <rect id="Rectangle_8" x="0.119347188" y="0.00691199928" width="52.2912713" height="2.48340454"></rect>
                            <rect id="Rectangle_9" x="0.119347188" y="28.607229" width="52.2912713" height="2.48355814"></rect>
                        </g>
                        <g id="Group_25" opacity="0.1" transform="translate(4.556083, 16.281598)" fill="#231F20">
                            <rect id="Rectangle_10" x="0.119347188" y="0.108287989" width="5.14544586" height="57.534714"></rect>
                        </g>
                        <g id="Group_26" opacity="0.1" transform="translate(11.468082, 58.675194)" fill="#231F20">
                            <path d="M5.16817866,6.50142652 L5.16817866,0.586444739 C5.16817865,0.454714597 5.22051876,0.328382023 5.31368044,0.235249151 C5.40684212,0.142116279 5.53319087,0.0898559668 5.66492101,0.0898559668 L0.505958347,0.0898559668 C0.374228212,0.0898559668 0.247879457,0.142116279 0.154717778,0.235249151 C0.0615560985,0.328382023 0.00921597524,0.454714597 0.00921597524,0.586444739 L0.00921597524,6.50142652 C0.00921597524,6.63318328 0.061497354,6.75955532 0.154663452,6.85272142 C0.24782955,6.94588752 0.374201594,6.99816889 0.505958347,6.99816889 L5.66492101,6.99816889 C5.39057779,6.99816889 5.16817866,6.77576975 5.16817866,6.50142652 L5.16817866,6.50142652 Z" id="Path_112"></path>
                        </g>
                    </g>
                </g>
            </g>
        </g>
    </g>
</svg>