<?xml version="1.0" encoding="UTF-8"?>
<svg width="55px" height="80px" viewBox="0 0 55 80" version="1.1" xmlns="http://www.w3.org/2000/svg" xmlns:xlink="http://www.w3.org/1999/xlink">
    <!-- Generator: Sketch 63.1 (92452) - https://sketch.com -->
    <title>012-gramophone</title>
    <desc>Created with Sketch.</desc>
    <g id="Page-1" stroke="none" stroke-width="1" fill="none" fill-rule="evenodd">
        <g id="Group-Copy" transform="translate(-583.000000, -509.000000)" fill-rule="nonzero">
            <g id="Group-10" transform="translate(112.000000, 200.000000)">
                <g id="Group-9">
                    <g id="012-gramophone" transform="translate(471.199972, 309.599982)">
                        <g id="Group_15" transform="translate(25.266429, 26.111997)" fill="#D8B26B">
                            <path d="M15.3580016,1.80602861 L10.1270005,0.0614399936 L10.1270005,4.7626747 L13.9451889,6.03601857 C19.9763848,8.04473194 23.8387485,13.9323852 23.2793083,20.2646265 C22.7198681,26.5968678 17.8850654,31.7161447 11.5951092,32.6363102 L11.5951092,37.1317209 C18.6470517,36.348466 24.6029048,31.5426441 26.8586468,24.8154598 C30.0367841,15.3036272 24.8776678,4.98155468 15.3580016,1.80602861 Z" id="Path_80"></path>
                            <path d="M25.8081765,13.4416882 C25.8053236,14.3549604 25.0656409,15.0946432 24.1523687,15.0973424 L1.67516143,15.0973424 C0.761889252,15.0946432 0.0222064591,14.3549604 0.019507198,13.4416882 L0.019507198,13.254757 C0.0222064591,12.3414848 0.761889252,11.6018021 1.67516143,11.5991028 L24.1525223,11.5991028 C25.0657945,11.6018021 25.8054772,12.3414848 25.8081765,13.254757 L25.8081765,13.4416882 L25.8081765,13.4416882 Z" id="Path_81"></path>
                        </g>
                        <ellipse id="Ellipse_7" fill="#FEBE2D" cx="27.2632292" cy="39.4606039" rx="3.16723167" ry="3.16554207"></ellipse>
                        <path d="M37.1177433,50.1955532 C37.1168138,50.6523215 36.7467613,51.022374 36.289993,51.0233035 L14.7657201,51.0233035 C14.3089518,51.022374 13.9388993,50.6523215 13.9379697,50.1955532 L13.9379697,47.6170702 C13.9388993,47.1603019 14.3089518,46.7902494 14.7657201,46.7893199 L36.289993,46.7893199 C36.7467613,46.7902494 37.1168138,47.1603019 37.1177433,47.6170702 L37.1177433,50.1955532 Z" id="Path_82" fill="#D8B26B"></path>
                        <path d="M22.5870312,50.1955532 L22.5870312,47.6170702 C22.5879608,47.1603019 22.9580133,46.7902494 23.4147816,46.7893199 L14.7657201,46.7893199 C14.3089518,46.7902494 13.9388993,47.1603019 13.9379697,47.6170702 L13.9379697,50.1955532 C13.9388993,50.6523215 14.3089518,51.022374 14.7657201,51.0233035 L23.4147816,51.0233035 C22.9580133,51.022374 22.5879608,50.6523215 22.5870312,50.1955532 Z" id="Path_83" fill="#231F20" opacity="0.1"></path>
                        <rect id="Rectangle_3" fill="#971311" x="10.3292917" y="53.245588" width="30.3960544" height="16.0432111"></rect>
                        <rect id="Rectangle_4" fill="#231F20" opacity="0.1" x="10.3292917" y="53.245588" width="5.17893066" height="16.0432111"></rect>
                        <path d="M42.6150868,53.64418 C42.6141572,54.1009483 42.2441047,54.4710008 41.7873364,54.4719303 L9.26822303,54.4719303 C8.81145473,54.4710008 8.44140223,54.1009483 8.44047272,53.64418 L8.44047272,51.691617 C8.44140223,51.2348487 8.81145473,50.8647962 9.26822303,50.8638667 L41.7870292,50.8638667 C42.2437975,50.8647962 42.61385,51.2348487 42.6150868,51.691617 L42.6150868,53.64418 L42.6150868,53.64418 Z" id="Path_84" fill="#FEBE2D"></path>
                        <path d="M13.618789,53.64418 L13.618789,51.691617 C13.6197185,51.2348487 13.989771,50.8647962 14.4465393,50.8638667 L9.26837663,50.8638667 C8.81160833,50.8647962 8.44155583,51.2348487 8.44062632,51.691617 L8.44062632,53.64418 C8.44155583,54.1009483 8.81160833,54.4710008 9.26837663,54.4719303 L14.4465393,54.4719303 C13.989771,54.4710008 13.6197185,54.1009483 13.618789,53.64418 L13.618789,53.64418 Z" id="Path_85" fill="#231F20" opacity="0.1"></path>
                        <path d="M7.85694638,68.4421561 C7.3711335,68.4644362 6.94555133,68.7746155 6.77560249,69.2302776 L3.42359004,77.8550703 C3.34548327,78.0390138 3.36972667,78.2504634 3.48743882,78.4119557 C3.60515098,78.5734479 3.79903172,78.6612484 3.99805398,78.6431918 L47.0571983,78.6431918 C47.2562206,78.6612484 47.4501013,78.5734479 47.5678134,78.4119557 C47.6855256,78.2504634 47.709769,78.0390138 47.6316622,77.8550703 L44.279957,69.230124 C44.1100299,68.7745115 43.6845227,68.4643427 43.1987667,68.4420025 L7.85694638,68.4420025 L7.85694638,68.4421561 Z" id="Path_86" fill="#E02424"></path>
                        <path d="M8.5982199,77.8550703 L11.950386,69.230124 C12.120313,68.7745115 12.5458203,68.4643427 13.0315762,68.4420025 L7.85725358,68.4420025 C7.3714407,68.4642826 6.94585853,68.7744619 6.77590969,69.230124 L3.42451164,77.8550703 C3.34640487,78.0390138 3.37064827,78.2504634 3.48836042,78.4119557 C3.60607258,78.5734479 3.79995332,78.6612484 3.99897558,78.6431918 L9.17329824,78.6431918 C8.97417131,78.6614846 8.78008275,78.5737816 8.66221432,78.4122477 C8.5443459,78.2507138 8.52004346,78.0391208 8.5982199,77.8550703 Z" id="Path_87" fill="#231F20" opacity="0.1"></path>
                        <path d="M44.1229778,40.8465365 C44.1256771,41.7598087 44.8653599,42.4994915 45.778632,42.5021908 L52.7170505,42.5021908 C53.6303227,42.4994915 54.3700055,41.7598087 54.3727047,40.8465365 L54.3727047,38.4210392 C54.3700055,37.507767 53.6303227,36.7680842 52.7170505,36.765385 L45.778632,36.765385 C44.8653599,36.7680842 44.1256771,37.507767 44.1229778,38.4210392 L44.1229778,40.8465365 Z" id="Path_88" fill="#FEBE2D"></path>
                        <path d="M2.38894055,42.9035475 C7.26942644,39.3037783 12.9389555,36.2918362 18.3664109,34.4131548 C26.1287397,31.6101087 33.4126045,31.0414816 40.7563733,30.26488 C34.520214,26.3020005 28.2471907,22.5518568 22.5349608,16.5877231 C18.5054189,12.4899827 14.7614193,7.26927284 11.9847923,1.8728446 L2.38894055,42.9035475 Z" id="Path_89" fill="#D8B26B"></path>
                        <g id="Group_16" opacity="0.1" transform="translate(2.380032, 1.843200)" fill="#231F20">
                            <path d="M13.9826673,7.26604724 C12.3628785,4.95473304 10.9003782,2.53709173 9.6050678,0.0294911969 L0.00890879907,41.0601941 C2.28123176,39.3896742 4.66359344,37.874251 7.13978806,36.524233 L13.9826673,7.26604724 Z" id="Path_90"></path>
                        </g>
                        <g id="Group_17" transform="translate(0.076032, 0.000000)" fill="#FEBE2D">
                            <path d="M1.35582706,44.4694994 C0.467182952,44.2582437 -0.0843336872,43.369327 0.121036787,42.4793044 L9.75682458,1.27764467 C9.9671174,0.388950115 10.8561514,-0.162636816 11.7457908,0.0436223954 L13.2162034,0.388607959 C14.1048475,0.599863653 14.6563642,1.48878032 14.4509937,2.37880295 L4.8148987,43.5801555 C4.60460182,44.4687014 3.71577625,45.0202442 2.82623971,44.8141777 L1.35582706,44.4694994 Z" id="Path_91"></path>
                            <path d="M34.669974,32.2764254 C33.7813829,32.0650961 33.2299027,31.1762382 33.4351837,30.2862304 L34.198422,27.0223844 C34.4091938,26.1337546 35.2985946,25.5826337 36.1881562,25.7894373 L41.7288148,27.0898148 C42.6175224,27.3012856 43.1689956,28.1903381 42.9636051,29.0804706 L42.2005204,32.3435486 C41.9902276,33.2322432 41.1011936,33.7838301 40.2115542,33.5775709 L34.669974,32.2764254 Z" id="Path_92"></path>
                        </g>
                    </g>
                </g>
            </g>
        </g>
    </g>
</svg>