<?xml version="1.0" encoding="UTF-8"?>
<svg width="74px" height="79px" viewBox="0 0 74 79" version="1.1" xmlns="http://www.w3.org/2000/svg" xmlns:xlink="http://www.w3.org/1999/xlink">
    <!-- Generator: Sketch 63.1 (92452) - https://sketch.com -->
    <title>014-corndog</title>
    <desc>Created with Sketch.</desc>
    <g id="Page-1" stroke="none" stroke-width="1" fill="none" fill-rule="evenodd">
        <g id="Group-Copy" transform="translate(-285.000000, -651.000000)" fill-rule="nonzero">
            <g id="Group-10" transform="translate(112.000000, 200.000000)">
                <g id="Group-9">
                    <g id="014-corndog" transform="translate(173.599990, 451.199973)">
                        <path d="M11.0670324,53.5011784 C10.2280693,53.5011784 9.541631,54.2630343 9.541631,55.194311 L9.541631,76.9503664 C9.541631,77.8816431 10.2280693,78.643499 11.0670324,78.643499 C11.9059956,78.643499 12.5924339,77.8816431 12.5924339,76.9503664 L12.5924339,55.1941574 C12.5922803,54.2630343 11.9059956,53.5011784 11.0670324,53.5011784 Z" id="Path_361" fill="#D69363"></path>
                        <path d="M7.84650158,55.3081286 C7.8497086,56.2423178 8.60667127,56.9985943 9.540863,57.0009541 L12.5933555,57.0009541 C13.5276666,56.9985934 14.2846784,56.2421306 14.2877169,55.3078214 L14.2877169,53.4163912 C14.2846784,52.482082 13.5276666,51.7256192 12.5933555,51.7232586 L9.540863,51.7232586 C8.60655185,51.7256192 7.84954004,52.482082 7.84650158,53.4163912 L7.84650158,55.3081286 Z" id="Path_362" fill="#A86D33"></path>
                        <path d="M22.1339113,42.2246356 C22.1300123,45.155965 20.9619215,47.9657399 18.8864653,50.0358094 C16.8110091,52.1058789 13.9982081,53.2666638 11.0668788,53.2628009 L11.0668788,53.2628009 C4.96275751,53.2706857 0.00796893358,48.3287568 0,42.2246356 L0,11.0381556 C0.00805368466,4.93400959 4.96288618,-0.00789444377 11.0670324,-9.45644622e-06 L11.0670324,-9.45644622e-06 C13.9983492,-0.00383178542 16.8111266,1.15696623 18.8865739,3.22702691 C20.9620213,5.29708759 22.1301252,8.10683879 22.1339113,11.0381556 L22.1339113,42.2246356 L22.1339113,42.2246356 Z" id="Path_363" fill="#D69363"></path>
                        <path d="M3.37029085,42.2246356 L3.37029085,11.0381556 C3.37636301,5.5875413 7.35606185,0.955558964 12.7435763,0.128563187 C9.55774921,-0.361447786 6.31665169,0.562493591 3.86808052,2.65870543 C1.41950936,4.75491728 0.00704421599,7.81487202 0.000153599984,11.0381556 L0.000153599984,42.2246356 C0.00708941775,45.4479327 1.41958994,48.5078839 3.86818394,50.60409 C6.31677793,52.7002961 9.55788831,53.6242344 12.7437299,53.1342281 C7.35605361,52.3074822 3.3761799,47.6753722 3.37029085,42.2246356 Z" id="Path_364" fill="#000000" opacity="0.1"></path>
                        <g id="Group_53" transform="translate(5.104895, 5.222399)" fill="#CF6728">
                            <path d="M3.10502368,11.1955956 C3.1831188,11.2111587 3.26255132,11.2190964 3.34218205,11.2190964 L3.50530523,11.2190964 C4.17012522,11.2190964 4.70906831,10.6801533 4.70906831,10.0153334 C4.70906831,9.35051337 4.17012522,8.81157028 3.50530523,8.81157028 C3.14607354,8.81602866 2.81220541,8.62693539 2.63129022,8.3165534 C2.45037502,8.00617141 2.45037502,7.62247336 2.63129022,7.31209137 C2.81220541,7.00170938 3.14607354,6.81261611 3.50530523,6.81707449 L8.41912232,6.81707449 C8.46016275,6.81706576 8.50117602,6.81496383 8.54200231,6.81077689 C10.3968908,6.74480933 11.8567287,5.20453536 11.8232101,3.3487769 C11.7896915,1.49301844 10.2751832,0.00646697056 8.41912232,0.0075258333 L5.31010505,0.0075258333 C4.64528506,0.0075258333 4.10634197,0.546469485 4.10634197,1.21128947 C4.10634197,1.87610946 4.64528506,2.41505255 5.31010505,2.41505255 L8.41912232,2.41505255 C8.96992954,2.41505255 9.41644702,2.86157002 9.41644702,3.41237724 C9.41644702,3.96318446 8.96992954,4.40970194 8.41912232,4.40970194 L3.50530523,4.40970194 C3.46426481,4.40971067 3.42325154,4.4118126 3.38242525,4.41599954 C1.60441319,4.4783829 0.174654556,5.90003356 0.102160756,7.6776621 C0.0296669554,9.45529064 1.33891713,10.9886413 3.10594528,11.1955956 L3.10502368,11.1955956 Z" id="Path_365"></path>
                            <path d="M3.50530523,15.6211184 L8.41912232,15.6211184 C8.46016273,15.6211091 8.50117598,15.6190072 8.54200231,15.6148208 C10.3706717,15.5502013 11.8208103,14.0509666 11.8245298,12.2211596 C11.8282494,10.3913527 10.3842179,8.88623487 8.55582631,8.81418148 C8.52879271,8.81249188 8.50160551,8.81141668 8.47411112,8.81141668 L8.41850792,8.81141668 C7.75368793,8.81141668 7.21474485,9.35035977 7.21474485,10.0151798 C7.21474485,10.6799997 7.75368793,11.2189428 8.41850792,11.2189428 C8.96931514,11.2189428 9.41583262,11.6654603 9.41583262,12.2162675 C9.41583262,12.7670747 8.96931514,13.2135922 8.41850792,13.2135922 L3.50530523,13.2135922 C3.46426481,13.213601 3.42325154,13.2157029 3.38242525,13.2198898 C1.55168348,13.2838528 0.100612137,14.7865075 0.100612137,16.6183663 C0.100612137,18.4502251 1.55168348,19.9528797 3.38242525,20.0168427 C3.42325188,20.0210251 3.46426493,20.0231271 3.50530523,20.0231403 L8.41912232,20.0231403 C8.96992954,20.0231403 9.41644702,20.4696578 9.41644702,21.020465 C9.41644702,21.5712722 8.96992954,22.0177897 8.41912232,22.0177897 L3.50530523,22.0177897 C3.46426482,22.017799 3.42325158,22.0199009 3.38242525,22.0240873 C1.55086547,22.086883 0.0985441855,23.589851 0.0985441855,25.4224869 C0.0985441855,27.2551229 1.55086547,28.7580909 3.38242525,28.8208866 C3.42325188,28.825069 3.46426493,28.8271709 3.50530523,28.8271842 L8.41912232,28.8271842 C8.96992954,28.8271842 9.41644702,29.2737017 9.41644702,29.8245089 C9.41644702,30.3753161 8.96992954,30.8218336 8.41912232,30.8218336 L3.50530523,30.8218336 C3.46426482,30.8218428 3.42325158,30.8239448 3.38242525,30.8281312 C1.55168348,30.8920942 0.100612137,32.3947488 0.100612137,34.2266076 C0.100612137,36.0584664 1.55168348,37.5611211 3.38242525,37.6250841 C3.42325178,37.6292678 3.46426489,37.6313697 3.50530523,37.6313817 L8.41912232,37.6313817 C8.77835402,37.6269233 9.11222214,37.8160166 9.29313734,38.1263986 C9.47405254,38.4367805 9.47405254,38.8204786 9.29313734,39.1308606 C9.11222214,39.4412426 8.77835402,39.6303358 8.41912232,39.6258775 L6.58114491,39.6258775 C5.28466778,39.6432764 4.18769173,40.5887222 3.97916118,41.8684372 C3.95125878,41.971435 3.93715793,42.0776821 3.93722839,42.1843924 L3.93722839,43.2489939 C3.93722839,43.9138139 4.47617148,44.452757 5.14099146,44.452757 C5.80581145,44.452757 6.34475454,43.9138139 6.34475454,43.2489939 L6.34475454,42.3536596 C6.33054264,42.2023308 6.43233213,42.064495 6.58114491,42.0335572 L8.41896872,42.0335572 C10.2767197,42.0371114 11.7939203,40.549916 11.8274702,38.6924646 C11.8610202,36.8350132 10.3985162,35.2939973 8.54184871,35.2304603 C8.50102217,35.2262766 8.46000906,35.2241747 8.41896872,35.2241627 L3.50545883,35.2241627 C3.14622714,35.2286211 2.81235901,35.0395278 2.63144382,34.7291458 C2.45052862,34.4187639 2.45052862,34.0350658 2.63144382,33.7246838 C2.81235901,33.4143018 3.14622714,33.2252086 3.50545883,33.2296669 L8.41927592,33.2296669 C8.46031633,33.2296577 8.50132958,33.2275557 8.54215591,33.2233693 C10.3737995,33.1605722 11.8261879,31.6575358 11.8261879,29.8248161 C11.8261879,27.9920963 10.3737995,26.48906 8.54215591,26.4262628 C8.50132927,26.4220804 8.46031623,26.4199785 8.41927592,26.4199652 L3.50530523,26.4199652 C2.95458285,26.4199652 2.50813414,25.9735165 2.50813414,25.4227941 C2.50813414,24.8720718 2.95458285,24.4256231 3.50530523,24.4256231 L8.41912232,24.4256231 C8.46016273,24.4256138 8.50117598,24.4235119 8.54200231,24.4193255 C10.3736459,24.3565283 11.8260343,22.853492 11.8260343,21.0207722 C11.8260343,19.1880525 10.3736459,17.6850161 8.54200231,17.622219 C8.50117567,17.6180365 8.46016263,17.6159346 8.41912232,17.6159214 L3.50530523,17.6159214 C2.95454043,17.6159214 2.50805734,17.1694383 2.50805734,16.6186735 C2.50805734,16.0679087 2.95454043,15.6214256 3.50530523,15.6214256 L3.50530523,15.6211184 Z" id="Path_366"></path>
                        </g>
                        <path d="M36.5928922,53.5011784 C35.7539291,53.5011784 35.0674907,54.2630343 35.0674907,55.194311 L35.0674907,76.9503664 C35.0674907,77.8816431 35.7539291,78.643499 36.5928922,78.643499 C37.4318553,78.643499 38.1182936,77.8816431 38.1182936,76.9503664 L38.1182936,55.1941574 C38.1184472,54.2630343 37.4320089,53.5011784 36.5928922,53.5011784 Z" id="Path_367" fill="#D69363"></path>
                        <path d="M33.3725149,55.3081286 C33.3757224,56.2423776 34.1327782,56.9986786 35.0670299,57.0009541 L38.1193688,57.0009541 C39.05374,56.9986778 39.810845,56.2421904 39.8138838,55.3078214 L39.8138838,53.4163912 C39.810845,52.4820223 39.05374,51.7255349 38.1193688,51.7232586 L35.0670299,51.7232586 C34.1326588,51.7255349 33.3755538,52.4820223 33.3725149,53.4163912 L33.3725149,55.3081286 L33.3725149,55.3081286 Z" id="Path_368" fill="#8C561F"></path>
                        <path d="M47.6599246,42.2246356 C47.6563421,45.1560982 46.488302,47.9660542 44.4127949,50.0362609 C42.3372878,52.1064677 39.5243543,53.2673189 36.5928922,53.2634155 L36.5928922,53.2634155 C30.4887708,53.2713001 25.5339823,48.3293712 25.5260133,42.22525 L25.5260133,11.0381556 C25.5339823,4.93403441 30.4887708,-0.00789440999 36.5928922,-9.65846029e-06 L36.5928922,-9.65846029e-06 C39.5242214,-0.00387254104 42.3370224,1.15691236 44.4124786,3.22698186 C46.4879348,5.29705136 47.6560257,8.10682625 47.6599246,11.0381556 L47.6599246,42.2246356 L47.6599246,42.2246356 Z" id="Path_369" fill="#A86D33"></path>
                        <path d="M28.8955362,42.2246356 L28.8955362,11.0381556 C28.9015033,5.58501084 32.8847598,0.951619753 38.2752728,0.127487987 C35.0891525,-0.360119765 31.8486974,0.564674089 29.3998483,2.6604464 C26.9509991,4.75621871 25.5368138,7.81495587 25.5264741,11.0381556 L25.5264741,42.2246356 C25.5368138,45.4478354 26.9509991,48.5065725 29.3998483,50.6023448 C31.8486974,52.6981172 35.0891525,53.622911 38.2752728,53.1353033 C32.8846925,52.3112928 28.9013733,47.6778287 28.8955362,42.2246356 Z" id="Path_370" fill="#000000" opacity="0.1"></path>
                        <path d="M62.1190591,53.5011784 C61.280096,53.5011784 60.5936577,54.2630343 60.5936577,55.194311 L60.5936577,76.9503664 C60.5936577,77.8816431 61.2799424,78.643499 62.1190591,78.643499 C62.9581758,78.643499 63.6444606,77.8816431 63.6444606,76.9503664 L63.6444606,55.1941574 C63.6444606,54.2630343 62.9581758,53.5011784 62.1190591,53.5011784 Z" id="Path_371" fill="#D69363"></path>
                        <path d="M58.8985283,55.3081286 C58.9017357,56.2423776 59.6587916,56.9986786 60.5930433,57.0009541 L63.6453822,57.0009541 C64.5797533,56.9986778 65.3368583,56.2421904 65.3398972,55.3078214 L65.3398972,53.4163912 C65.3368583,52.4820223 64.5797533,51.7255349 63.6453822,51.7232586 L60.5930433,51.7232586 C59.6586721,51.7255349 58.9015671,52.4820223 58.8985283,53.4163912 L58.8985283,55.3081286 Z" id="Path_372" fill="#A86D33"></path>
                        <path d="M73.185938,42.2246356 C73.1821926,45.155965 72.0141017,47.9657399 69.9386456,50.0358094 C67.8631894,52.1058789 65.0503884,53.2666638 62.1190591,53.2628009 L62.1190591,53.2628009 C59.1877689,53.2665823 56.375031,52.1057662 54.2996169,50.03571 C52.2242028,47.9656537 51.05612,45.1559258 51.0523339,42.2246356 L51.0523339,11.0381556 C51.0602181,4.93411928 56.0148691,-0.00780946965 62.1189055,-9.65846029e-06 L62.1189055,-9.65846029e-06 C65.0502348,-0.00387254104 67.8630358,1.15691236 69.938492,3.22698186 C72.0139481,5.29705136 73.182039,8.10682625 73.185938,11.0381556 L73.185938,42.2246356 L73.185938,42.2246356 Z" id="Path_373" fill="#D69363"></path>
                        <path d="M53.94754,42.2246356 L53.94754,11.0381556 C53.954474,5.49427036 58.0691007,0.814057455 63.5664318,0.0970751899 C63.0865292,0.0334555041 62.6030056,0.00102904533 62.1189055,-9.25644364e-06 C59.1876153,-0.00379101337 56.3748774,1.15702501 54.2994633,3.22708127 C52.2240492,5.29713754 51.0559664,8.10686544 51.0521803,11.0381556 L51.0521803,42.2246356 C51.0559664,45.1559258 52.2240492,47.9656537 54.2994633,50.03571 C56.3748774,52.1057662 59.1876153,53.2665823 62.1189055,53.2628005 C62.6029547,53.2617659 63.0864275,53.2293394 63.5662782,53.1657161 C58.0689401,52.4487908 53.9543288,47.7685206 53.94754,42.2246356 L53.94754,42.2246356 Z" id="Path_374" fill="#000000" opacity="0.1"></path>
                        <g id="Group_54" transform="translate(56.100090, 5.222399)" fill="#FEBE2D">
                            <path d="M8.47580072,6.81707449 L3.56213723,6.81707449 C2.89731724,6.81707449 2.35837415,6.2781314 2.35837415,5.61331141 C2.35837415,4.94849143 2.89731724,4.40954834 3.56213723,4.40954834 L8.47580072,4.40954834 C9.02660794,4.40954834 9.47312541,3.96303086 9.47312541,3.41222364 C9.47312541,2.86141642 9.02660794,2.41489895 8.47580072,2.41489895 L5.36678344,2.41489895 C4.70196345,2.41489895 4.16302037,1.87595586 4.16302037,1.21113587 C4.16302037,0.546315885 4.70196345,0.00737279923 5.36678344,0.00737279923 L8.47580072,0.00737279923 C9.69223678,0.00737279923 10.8162701,0.656333673 11.4244881,1.7097982 C12.0327061,2.76326273 12.0327061,4.06118456 11.4244881,5.11464909 C10.8162701,6.16811362 9.69223678,6.81707449 8.47580072,6.81707449 L8.47580072,6.81707449 Z" id="Path_375"></path>
                            <path d="M8.47580072,11.2187892 L3.56213723,11.2187892 C2.34033526,11.2269959 1.20781579,10.5798797 0.594533487,9.52311467 C-0.0187488125,8.46634969 -0.0187488125,7.16198788 0.594533487,6.1052229 C1.20781579,5.04845792 2.34033526,4.40134172 3.56213723,4.40954834 L8.47580072,4.40954834 C9.1406207,4.40954834 9.67956379,4.94849143 9.67956379,5.61331141 C9.67956379,6.2781314 9.1406207,6.81707449 8.47580072,6.81707449 L3.56213723,6.81707449 C3.20290553,6.81261611 2.86903741,7.00170938 2.68812221,7.31209137 C2.50720702,7.62247336 2.50720702,8.00617141 2.68812221,8.3165534 C2.86903741,8.62693539 3.20290553,8.81602866 3.56213723,8.81157028 L8.47580072,8.81157028 C9.14053587,8.81157028 9.67941019,9.3504446 9.67941019,10.0151798 C9.67941019,10.6799149 9.14053587,11.2187892 8.47580072,11.2187892 L8.47580072,11.2187892 Z" id="Path_376"></path>
                            <path d="M8.47580072,15.6211184 L3.56213723,15.6211184 C2.89731724,15.6211184 2.35837415,15.0821753 2.35837415,14.4173553 C2.35837415,13.7525353 2.89731724,13.2135922 3.56213723,13.2135922 L8.47580072,13.2135922 C9.02660794,13.2135922 9.47312541,12.7670747 9.47312541,12.2162675 C9.47312541,11.6654603 9.02660794,11.2189428 8.47580072,11.2189428 L3.56213723,11.2189428 C2.89731724,11.2189428 2.35837415,10.6799997 2.35837415,10.0151798 C2.35837415,9.35035977 2.89731724,8.81141668 3.56213723,8.81141668 L8.47580072,8.81141668 C10.3562479,8.81141668 11.8806516,10.3358203 11.8806516,12.2162675 C11.8806516,14.0967147 10.3562479,15.6211184 8.47580072,15.6211184 L8.47580072,15.6211184 Z" id="Path_377"></path>
                            <path d="M8.47580072,20.0228331 L3.56213723,20.0228331 C2.34033526,20.0310397 1.20781579,19.3839235 0.594533487,18.3271586 C-0.0187488125,17.2703936 -0.0187488125,15.9660318 0.594533487,14.9092668 C1.20781579,13.8525018 2.34033526,13.2053856 3.56213723,13.2135922 L8.47580072,13.2135922 C9.1406207,13.2135922 9.67956379,13.7525353 9.67956379,14.4173553 C9.67956379,15.0821753 9.1406207,15.6211184 8.47580072,15.6211184 L3.56213723,15.6211184 C3.20290553,15.61666 2.86903741,15.8057533 2.68812221,16.1161353 C2.50720702,16.4265172 2.50720702,16.8102153 2.68812221,17.1205973 C2.86903741,17.4309793 3.20290553,17.6200725 3.56213723,17.6156142 L8.47580072,17.6156142 C9.14053587,17.6156142 9.67941019,18.1544885 9.67941019,18.8192236 C9.67941019,19.4839588 9.14053587,20.0228331 8.47580072,20.0228331 L8.47580072,20.0228331 Z" id="Path_378"></path>
                            <path d="M8.47580072,24.4250087 L3.56213723,24.4250087 C2.89731724,24.4250087 2.35837415,23.8860656 2.35837415,23.2212456 C2.35837415,22.5564256 2.89731724,22.0174825 3.56213723,22.0174825 L8.47580072,22.0174825 C9.02660794,22.0174825 9.47312541,21.570965 9.47312541,21.0201578 C9.47312541,20.4693506 9.02660794,20.0228331 8.47580072,20.0228331 L3.56213723,20.0228331 C2.89731724,20.0228331 2.35837415,19.48389 2.35837415,18.81907 C2.35837415,18.15425 2.89731724,17.615307 3.56213723,17.615307 L8.47580072,17.615307 C10.3562479,17.615307 11.8806516,19.1397106 11.8806516,21.0201578 C11.8806516,22.900605 10.3562479,24.4250087 8.47580072,24.4250087 L8.47580072,24.4250087 Z" id="Path_379"></path>
                            <path d="M3.56229083,28.826877 L3.50638043,28.826877 C3.47873244,28.826877 3.45154524,28.8259554 3.42435804,28.8241122 C1.57049263,28.751514 0.11606439,27.2079476 0.153737611,25.3530438 C0.191410831,23.49814 1.70731369,22.0149012 3.56259803,22.0176323 L8.47626152,22.0176323 C9.1410815,22.0176323 9.68002459,22.5565792 9.68002459,23.2213992 C9.68002459,23.8862192 9.1410815,24.4251623 8.47626152,24.4251623 L3.56259803,24.4251623 C3.01187564,24.4251623 2.56542693,24.871611 2.56542693,25.4223333 C2.56542693,25.9730557 3.01187564,26.4195044 3.56259803,26.4195044 C4.2273756,26.4195044 4.7662843,26.9584131 4.7662843,27.6231907 C4.7662843,28.2879683 4.2273756,28.826877 3.56259803,28.826877 L3.56229083,28.826877 Z" id="Path_380"></path>
                            <path d="M8.47580072,33.2290525 L3.56213723,33.2290525 C2.89731724,33.2290525 2.35837415,32.6901094 2.35837415,32.0252895 C2.35837415,31.3604695 2.89731724,30.8215264 3.56213723,30.8215264 L8.47580072,30.8215264 C9.02660794,30.8215264 9.47312541,30.3750089 9.47312541,29.8242017 C9.47312541,29.2733945 9.02660794,28.826877 8.47580072,28.826877 L7.97675437,28.826877 C7.31193438,28.826877 6.77299129,28.2879339 6.77299129,27.6231139 C6.77299129,26.9582939 7.31193438,26.4193508 7.97675437,26.4193508 L8.47580072,26.4193508 C10.3562479,26.4193508 11.8806516,27.9437545 11.8806516,29.8242017 C11.8806516,31.7046489 10.3562479,33.2290525 8.47580072,33.2290525 L8.47580072,33.2290525 Z" id="Path_381"></path>
                            <path d="M8.47580072,37.6309209 L3.56213723,37.6309209 C2.34033526,37.6391275 1.20781579,36.9920113 0.594533487,35.9352463 C-0.0187488125,34.8784813 -0.0187488125,33.5741195 0.594533487,32.5173545 C1.20781579,31.4605896 2.34033526,30.8134734 3.56213723,30.82168 L8.47580072,30.82168 C9.1406207,30.82168 9.67956379,31.3606231 9.67956379,32.0254431 C9.67956379,32.690263 9.1406207,33.2292061 8.47580072,33.2292061 L3.56213723,33.2292061 C3.20290553,33.2247478 2.86903741,33.413841 2.68812221,33.724223 C2.50720702,34.034605 2.50720702,34.4183031 2.68812221,34.728685 C2.86903741,35.039067 3.20290553,35.2281603 3.56213723,35.2237019 L8.47580072,35.2237019 C9.14053587,35.2237019 9.67941019,35.7625762 9.67941019,36.4273114 C9.67941019,37.0920466 9.14053587,37.6309209 8.47580072,37.6309209 L8.47580072,37.6309209 Z" id="Path_382"></path>
                            <path d="M8.47580072,42.0327892 L7.06129846,42.0327892 C6.39647848,42.0327892 5.85753539,41.4938461 5.85753539,40.8290261 C5.85753539,40.1642062 6.39647848,39.6252631 7.06129846,39.6252631 L8.47580072,39.6252631 C8.83503241,39.6297214 9.16890054,39.4406282 9.34981573,39.1302462 C9.53073093,38.8198642 9.53073093,38.4361661 9.34981573,38.1257842 C9.16890054,37.8154022 8.83503241,37.6263089 8.47580072,37.6307673 L3.56213723,37.6307673 C2.89731728,37.6307672 2.35837426,37.0918241 2.35837426,36.4270042 C2.35837426,35.7621843 2.89731728,35.2232412 3.56213723,35.2232411 L8.47580072,35.2232411 C9.69765769,35.2150343 10.8302281,35.8621798 11.4435379,36.9189923 C12.0568478,37.9758049 12.0568478,39.2802254 11.4435379,40.337038 C10.8302281,41.3938506 9.69765769,42.040996 8.47580072,42.0327892 L8.47580072,42.0327892 Z" id="Path_383"></path>
                            <path d="M8.07813036,40.8291797 L6.63782331,40.8291797 C5.84570819,40.8291797 5.19751626,41.5150037 5.19751626,42.3528916 L5.19751626,42.1839316" id="Path_384"></path>
                            <path d="M5.19751626,44.4518354 C4.87825844,44.4518354 4.57206041,44.3250905 4.34628223,44.0993699 C4.12050406,43.8736494 3.99359913,43.5674837 3.99359913,43.2482259 L3.99359913,42.1836244 C3.99350732,42.0769127 4.00760855,41.9706627 4.03553238,41.8676692 C4.24407314,40.5878977 5.34113426,39.6424345 6.63766971,39.6251095 L8.07797676,39.6251095 C8.74279675,39.6251095 9.28173983,40.1640526 9.28173983,40.8288725 C9.28173983,41.4936925 8.74279675,42.0326356 8.07797676,42.0326356 L6.63766971,42.0326356 C6.48875475,42.0634429 6.38685312,42.201341 6.40112573,42.352738 L6.40112573,43.2480723 C6.40112574,43.9128323 5.86227626,44.4517505 5.19751626,44.4518354 L5.19751626,44.4518354 Z" id="Path_385"></path>
                        </g>
                        <g id="Group_55" transform="translate(32.906493, 3.532800)" fill="#D69363">
                            <path d="M5.83894979,3.8796284 L6.00437697,3.8796284 C6.66919696,3.8796284 7.20814005,3.34068531 7.20814005,2.67586532 C7.20814005,2.01104533 6.66919696,1.47210225 6.00437697,1.47210225 L5.83894979,1.47210225 C5.1741298,1.47210225 4.63518672,2.01104533 4.63518672,2.67586532 C4.63518672,3.34068531 5.1741298,3.8796284 5.83894979,3.8796284 Z" id="Path_386"></path>
                            <path d="M9.81242778,6.6941945 L9.97800856,6.6941945 C10.4080717,6.6941945 10.8054664,6.46475857 11.020498,6.09231297 C11.2355296,5.71986738 11.2355296,5.26099548 11.020498,4.88854988 C10.8054664,4.51610428 10.4080717,4.28666835 9.97800856,4.28666835 L9.81242778,4.28666835 C9.14760779,4.28666835 8.6086647,4.82561144 8.6086647,5.49043143 C8.6086647,6.15525142 9.14760779,6.6941945 9.81242778,6.6941945 L9.81242778,6.6941945 Z" id="Path_387"></path>
                            <path d="M5.01104588,6.60479931 L4.84561869,6.60479931 C4.18079871,6.60479931 3.64185562,7.1437424 3.64185562,7.80856239 C3.64185562,8.47338237 4.18079871,9.01232546 4.84561869,9.01232546 L5.01104588,9.01232546 C5.67586587,9.01232546 6.21480895,8.47338237 6.21480895,7.80856239 C6.21480895,7.1437424 5.67586587,6.60479931 5.01104588,6.60479931 Z" id="Path_388"></path>
                            <path d="M9.19495584,11.4508788 C9.19495584,10.7860588 8.65601275,10.2471157 7.99119277,10.2471157 L7.82561198,10.2471157 C7.160792,10.2471157 6.62184891,10.7860588 6.62184891,11.4508788 C6.62184891,12.1156988 7.160792,12.6546419 7.82561198,12.6546419 L7.99119277,12.6546419 C8.65597762,12.6545571 9.19487103,12.1156637 9.19495584,11.4508788 L9.19495584,11.4508788 Z" id="Path_389"></path>
                            <path d="M2.8586493,14.7171825 L2.69306852,14.7171825 C2.02824853,14.7171825 1.48930544,15.2561256 1.48930544,15.9209455 C1.48930544,16.5857655 2.02824853,17.1247086 2.69306852,17.1247086 L2.8586493,17.1247086 C3.52346929,17.1247086 4.06241238,16.5857655 4.06241238,15.9209455 C4.06241238,15.2561256 3.52346929,14.7171825 2.8586493,14.7171825 L2.8586493,14.7171825 Z" id="Path_390"></path>
                            <path d="M10.5196021,17.2455918 C10.5196021,16.5807718 9.98065902,16.0418287 9.31583903,16.0418287 L9.15025825,16.0418287 C8.48543826,16.0418287 7.94649517,16.5807718 7.94649517,17.2455918 C7.94649517,17.9104118 8.48543826,18.4493549 9.15025825,18.4493549 L9.31583903,18.4493549 C9.98065902,18.4493549 10.5196021,17.9104118 10.5196021,17.2455918 Z" id="Path_391"></path>
                            <path d="M10.8059125,21.0087914 L10.6403317,21.0087914 C9.9755117,21.0087914 9.43656862,21.5477345 9.43656862,22.2125545 C9.43656862,22.8773745 9.9755117,23.4163176 10.6403317,23.4163176 L10.8059125,23.4163176 C11.4707325,23.4163176 12.0096755,22.8773745 12.0096755,22.2125545 C12.0096755,21.5477345 11.4707325,21.0087914 10.8059125,21.0087914 Z" id="Path_392"></path>
                            <path d="M12.7925747,12.7306739 L12.6269939,12.7306739 C11.9621739,12.7306739 11.4232308,13.269617 11.4232308,13.9344369 C11.4232308,14.5992569 11.9621739,15.1382 12.6269939,15.1382 L12.7925747,15.1382 C13.4573947,15.1382 13.9963377,14.5992569 13.9963377,13.9344369 C13.9963377,13.269617 13.4573947,12.7306739 12.7925747,12.7306739 Z" id="Path_393"></path>
                            <path d="M2.57233893,1.35167986 C2.57233893,0.686859871 2.03339585,0.147916785 1.36857586,0.147916785 L1.20299507,0.147916785 C0.538175086,0.147916785 -0.00076799992,0.686859871 -0.00076799992,1.35167986 C-0.00076799992,2.01649985 0.538175086,2.55544293 1.20299507,2.55544293 L1.36857586,2.55544293 C2.03339585,2.55544293 2.57233893,2.01649985 2.57233893,1.35167986 L2.57233893,1.35167986 Z" id="Path_394"></path>
                        </g>
                    </g>
                </g>
            </g>
        </g>
    </g>
</svg>